Observation,Time (days),Realization 1,Realization 2,Realization 3,Realization 4,Realization 5,Realization 6,Realization 7,Realization 8,Realization 9,Realization 10,Realization 11,Realization 12,Realization 13,Realization 14,Realization 15,Realization 16,Realization 17,Realization 18,Realization 19,Realization 20,Realization 21,Realization 22,Realization 23,Realization 24,Realization 25,Realization 26,Realization 27,Realization 28,Realization 29,Realization 30
FGenAq1_000.TDS_volume_0,0.000000000000e+00,0.000000000000e+00,0.000000000000e+00,0.000000000000e+00,0.000000000000e+00,0.000000000000e+00,0.000000000000e+00,0.000000000000e+00,0.000000000000e+00,0.000000000000e+00,0.000000000000e+00,0.000000000000e+00,0.000000000000e+00,0.000000000000e+00,0.000000000000e+00,0.000000000000e+00,0.000000000000e+00,0.000000000000e+00,0.000000000000e+00,0.000000000000e+00,0.000000000000e+00,0.000000000000e+00,0.000000000000e+00,0.000000000000e+00,0.000000000000e+00,0.000000000000e+00,0.000000000000e+00,0.000000000000e+00,0.000000000000e+00,0.000000000000e+00,0.000000000000e+00
FGenAq1_000.TDS_volume_1,3.652500000000e+02,1.032348458568e-02,1.031131703772e-02,1.030611420699e-02,1.028378432565e-02,1.032534488011e-02,1.032568475573e-02,1.033210907298e-02,1.033083051089e-02,1.032772246131e-02,1.032849748699e-02,1.031809383381e-02,1.033126412369e-02,1.033141360006e-02,1.030290828303e-02,1.031252548843e-02,1.032151398577e-02,1.033102272517e-02,1.032141126952e-02,1.032688995309e-02,1.033021842339e-02,1.033207322953e-02,1.033169087432e-02,1.033180153019e-02,1.031657424175e-02,1.029694633957e-02,1.029316318534e-02,1.032929743445e-02,1.032983702125e-02,1.033191081775e-02,1.033034178931e-02
FGenAq1_000.TDS_volume_2,7.305000000000e+02,1.033217237487e-02,1.033145581830e-02,1.033113668184e-02,1.032968067360e-02,1.033227824406e-02,1.033229748061e-02,1.033265493892e-02,1.033258472955e-02,1.033241212691e-02,1.033245542324e-02,1.033186006405e-02,1.033260859233e-02,1.033261680604e-02,1.033093624183e-02,1.033152885261e-02,1.033205916106e-02,1.033259531415e-02,1.033205322974e-02,1.033236542994e-02,1.033255095418e-02,1.033265297697e-02,1.033263202546e-02,1.033263809321e-02,1.033177054459e-02,1.033055581294e-02,1.033030924121e-02,1.033249993348e-02,1.033252985451e-02,1.033264408253e-02,1.033255777013e-02
FGenAq1_000.TDS_volume_3,1.095750000000e+03,1.034212429275e-02,1.035446752363e-02,1.035969834755e-02,1.038182999121e-02,1.034022348347e-02,1.033987581351e-02,1.033328133762e-02,1.033459722447e-02,1.033778883412e-02,1.033699392243e-02,1.034761197041e-02,1.033415114618e-02,1.033399732679e-02,1.036290751344e-02,1.035324853842e-02,1.034413385255e-02,1.033439950884e-02,1.034423848793e-02,1.033864200013e-02,1.033522657141e-02,1.033331825089e-02,1.033371193407e-02,1.033359801564e-02,1.034915339203e-02,1.036884715636e-02,1.037259709829e-02,1.033617278737e-02,1.033561852887e-02,1.033348549323e-02,1.033509975858e-02
FGenAq1_000.TDS_volume_4,1.461000000000e+03,1.035339165897e-02,1.038045908599e-02,1.039192583662e-02,1.044041746213e-02,1.034922220048e-02,1.034845954561e-02,1.033399173167e-02,1.033687900859e-02,1.034388128421e-02,1.034213736287e-02,1.036542719246e-02,1.033590025553e-02,1.033556275182e-02,1.039895969273e-02,1.037778655884e-02,1.035779931636e-02,1.033644519733e-02,1.035802880814e-02,1.034575294396e-02,1.033825984587e-02,1.033407272775e-02,1.033493655004e-02,1.033468659091e-02,1.036880735566e-02,1.041197602152e-02,1.042019232873e-02,1.034033585140e-02,1.033911981358e-02,1.033443969374e-02,1.033798161133e-02
FGenAq1_000.TDS_volume_5,1.826250000000e+03,1.036602536012e-02,1.040953524348e-02,1.042794247956e-02,1.050551183342e-02,1.035931571905e-02,1.035808821459e-02,1.033478958191e-02,1.033944107657e-02,1.035071804970e-02,1.034791003081e-02,1.038538231027e-02,1.033786437992e-02,1.033732066204e-02,1.043922629699e-02,1.040524296161e-02,1.037311617667e-02,1.033874225303e-02,1.037348531113e-02,1.035373136690e-02,1.034166531614e-02,1.033492008200e-02,1.033631181796e-02,1.033590910826e-02,1.039081572541e-02,1.046007849073e-02,1.047321673828e-02,1.034500892038e-02,1.034305043501e-02,1.033551132476e-02,1.034121715592e-02
FGenAq1_000.TDS_volume_6,2.191500000000e+03,1.037913518707e-02,1.043963044430e-02,1.046517010181e-02,1.057241060651e-02,1.036979372256e-02,1.036808437480e-02,1.033561900301e-02,1.034210380854e-02,1.035781878913e-02,1.035390656386e-02,1.040606609115e-02,1.033990586133e-02,1.033914786503e-02,1.048080042340e-02,1.043366881343e-02,1.038900371461e-02,1.034112965692e-02,1.038951734931e-02,1.036201639455e-02,1.034520413193e-02,1.033580095934e-02,1.033774137922e-02,1.033717991821e-02,1.041362047815e-02,1.050965740522e-02,1.052782307935e-02,1.034986402852e-02,1.034713463715e-02,1.033662531360e-02,1.034457947965e-02
FGenAq1_000.TDS_volume_7,2.556750000000e+03,1.039272498433e-02,1.047073852394e-02,1.050358801040e-02,1.064111857311e-02,1.038065953080e-02,1.037845123693e-02,1.033648033192e-02,1.034486824003e-02,1.036518597076e-02,1.036012910749e-02,1.042748323763e-02,1.034202550565e-02,1.034104508579e-02,1.052367398892e-02,1.046306489880e-02,1.040546619991e-02,1.034360834368e-02,1.040612921097e-02,1.037061081690e-02,1.034887764034e-02,1.033671571718e-02,1.033922580643e-02,1.033849953170e-02,1.043722638977e-02,1.056072028982e-02,1.058401828245e-02,1.035490296433e-02,1.035137395389e-02,1.033778210983e-02,1.034806986802e-02
FGenAq1_000.TDS_volume_8,2.922000000000e+03,1.040679855118e-02,1.050285127688e-02,1.054320272904e-02,1.071163669150e-02,1.039191643374e-02,1.038919198430e-02,1.033737390538e-02,1.034773540446e-02,1.037282204854e-02,1.036657979689e-02,1.044963835020e-02,1.034422411752e-02,1.034301304833e-02,1.056785317342e-02,1.049341822526e-02,1.042250783816e-02,1.034617924624e-02,1.042332511922e-02,1.037951740475e-02,1.035268718482e-02,1.033766471271e-02,1.034076567159e-02,1.033986845917e-02,1.046163761370e-02,1.061327221516e-02,1.064180644064e-02,1.036012750949e-02,1.035576991424e-02,1.033898216260e-02,1.035168960319e-02
FGenAq1_000.TDS_volume_9,3.287250000000e+03,1.042135964121e-02,1.053597459937e-02,1.058401974106e-02,1.078396347361e-02,1.040356769109e-02,1.040030977258e-02,1.033830005991e-02,1.035070633311e-02,1.038072946196e-02,1.037326075674e-02,1.047253045047e-02,1.034650250032e-02,1.034505247563e-02,1.061334292755e-02,1.052473469732e-02,1.044013277024e-02,1.034884329582e-02,1.044110923141e-02,1.038873890949e-02,1.035663410502e-02,1.033864830287e-02,1.034236154604e-02,1.034128721056e-02,1.048684496378e-02,1.066731665571e-02,1.070118981035e-02,1.036553943867e-02,1.036032404222e-02,1.034022592069e-02,1.035543996391e-02
FGenAq1_000.TDS_volume_10,3.652500000000e+03,1.043641196180e-02,1.057011383526e-02,1.062604376710e-02,1.085809569738e-02,1.041561653203e-02,1.041180772944e-02,1.033925913182e-02,1.035378205506e-02,1.038891063582e-02,1.038017410111e-02,1.049615786811e-02,1.034886145611e-02,1.034716408961e-02,1.066014730358e-02,1.055701971357e-02,1.045834507180e-02,1.035160142188e-02,1.045948563857e-02,1.039827806284e-02,1.036071973681e-02,1.033966684436e-02,1.034401400051e-02,1.034275629533e-02,1.051285374943e-02,1.072285592810e-02,1.076216932344e-02,1.037114051953e-02,1.036503785680e-02,1.034151383249e-02,1.035932222548e-02
FGenAq1_000.TDS_volume_11,4.017750000000e+03,1.045172446960e-02,1.060473699138e-02,1.066861554096e-02,1.093284022355e-02,1.042787846298e-02,1.042350987521e-02,1.034023656892e-02,1.035691581961e-02,1.039724069296e-02,1.038721441459e-02,1.052015580807e-02,1.035126515027e-02,1.034931581959e-02,1.070752911639e-02,1.058977098164e-02,1.047685999162e-02,1.035441171216e-02,1.047816643492e-02,1.040798909779e-02,1.036488192699e-02,1.034070488187e-02,1.034569794750e-02,1.034425341326e-02,1.053926155112e-02,1.077900902777e-02,1.082377347892e-02,1.037684543828e-02,1.036983961127e-02,1.034282635089e-02,1.036327733846e-02
FGenAq1_000.TDS_volume_12,4.383000000000e+03,1.046729758196e-02,1.063984404313e-02,1.071173439558e-02,1.100819375337e-02,1.044035395263e-02,1.043541668124e-02,1.034123245147e-02,1.036010785658e-02,1.040572007434e-02,1.039438210480e-02,1.054452483562e-02,1.035371376622e-02,1.035150783195e-02,1.075548726231e-02,1.062298860706e-02,1.049567532134e-02,1.035727437647e-02,1.049714990256e-02,1.041787247753e-02,1.036912096366e-02,1.034176250040e-02,1.034741352042e-02,1.034577868413e-02,1.056606883491e-02,1.083577403029e-02,1.088599986758e-02,1.038265455497e-02,1.037472962577e-02,1.034416358189e-02,1.036730557987e-02
FGenAq1_000.TDS_volume_13,4.748250000000e+03,1.048312680244e-02,1.067543477775e-02,1.075539941187e-02,1.108415245366e-02,1.045304346253e-02,1.044752861227e-02,1.034224685970e-02,1.036335839526e-02,1.041434921722e-02,1.040167757664e-02,1.056926540641e-02,1.035620748699e-02,1.035374029280e-02,1.080402034568e-02,1.065667252173e-02,1.051479168672e-02,1.036018962411e-02,1.051643666418e-02,1.042792866039e-02,1.037343713392e-02,1.034283978489e-02,1.034916085253e-02,1.034733222757e-02,1.059327594037e-02,1.089314864440e-02,1.094884566578e-02,1.038856822778e-02,1.037970821913e-02,1.034552563137e-02,1.037140722583e-02
FGenAq1_000.TDS_volume_14,5.113500000000e+03,1.049921262413e-02,1.071150883213e-02,1.079960947156e-02,1.116071209138e-02,1.046594744701e-02,1.045984612635e-02,1.034327987379e-02,1.036666766430e-02,1.042312855523e-02,1.040910123233e-02,1.059437788751e-02,1.035874649529e-02,1.035601336794e-02,1.085312674176e-02,1.069082251844e-02,1.053420965363e-02,1.036315766394e-02,1.053602728175e-02,1.043815809993e-02,1.037783072384e-02,1.034393682019e-02,1.035094007691e-02,1.034891416307e-02,1.062088310506e-02,1.095113029535e-02,1.101230773268e-02,1.039458681308e-02,1.038477570886e-02,1.034691260512e-02,1.037558255157e-02
FGenAq1_000.TDS_volume_15,5.478750000000e+03,1.051555562278e-02,1.074806571951e-02,1.084436329462e-02,1.123786812913e-02,1.047906414368e-02,1.047236930107e-02,1.034433157382e-02,1.037003589179e-02,1.043205851826e-02,1.041665347135e-02,1.061986257226e-02,1.036133097347e-02,1.035832722291e-02,1.090280464137e-02,1.072543827537e-02,1.055392973792e-02,1.036617870431e-02,1.055592226654e-02,1.044856124483e-02,1.038230201847e-02,1.034505369111e-02,1.035275132645e-02,1.035052460997e-02,1.064889048183e-02,1.100971618403e-02,1.107638267918e-02,1.040071066538e-02,1.038993241110e-02,1.034832460882e-02,1.037983183133e-02
FGenAq1_000.TDS_volume_16,5.844000000000e+03,1.053205700673e-02,1.078487953990e-02,1.088938205911e-02,1.131512589959e-02,1.049231345099e-02,1.048502004979e-02,1.034539569897e-02,1.037344297605e-02,1.044108549520e-02,1.042428901967e-02,1.064556381167e-02,1.036394551035e-02,1.036066806430e-02,1.095274307932e-02,1.076030631370e-02,1.057383226947e-02,1.036923472233e-02,1.057600086306e-02,1.045907554314e-02,1.038682430130e-02,1.034618374839e-02,1.035458380978e-02,1.035215397539e-02,1.067712654556e-02,1.106853656314e-02,1.114066415296e-02,1.040690312918e-02,1.039514749130e-02,1.034975323342e-02,1.038412968125e-02
FGenAq1_000.TDS_volume_17,6.209250000000e+03,1.054871673027e-02,1.082194947863e-02,1.093466464560e-02,1.139248525797e-02,1.050569539271e-02,1.049779840630e-02,1.034647226892e-02,1.037688896194e-02,1.045020949745e-02,1.043200790857e-02,1.067148125575e-02,1.036659014499e-02,1.036303592854e-02,1.100294080920e-02,1.079542590027e-02,1.059391710594e-02,1.037232576063e-02,1.059626292338e-02,1.046970097707e-02,1.039139762076e-02,1.034732701274e-02,1.035643755753e-02,1.035380228729e-02,1.070559084390e-02,1.112759013808e-02,1.120515099081e-02,1.041316424857e-02,1.040042099748e-02,1.035119850413e-02,1.038847614944e-02
FGenAq1_000.TDS_volume_18,6.574500000000e+03,1.056553472898e-02,1.085927466353e-02,1.098020985976e-02,1.146994588263e-02,1.051920997913e-02,1.051070439184e-02,1.034756130329e-02,1.038037389413e-02,1.045943053532e-02,1.043981016855e-02,1.069761451916e-02,1.036926491634e-02,1.036543085193e-02,1.105339649862e-02,1.083079624843e-02,1.061418408037e-02,1.037545186168e-02,1.061670827465e-02,1.048043605673e-02,1.039602202498e-02,1.034848350483e-02,1.035831260027e-02,1.035546957363e-02,1.073428288419e-02,1.118687550602e-02,1.126984190510e-02,1.041949406706e-02,1.040575297724e-02,1.035266044611e-02,1.039287128378e-02
FGenAq1_000.TDS_volume_19,6.939750000000e+03,1.058251092241e-02,1.089685417459e-02,1.102601644595e-02,1.154750730953e-02,1.053285720898e-02,1.052373801683e-02,1.034866282171e-02,1.038389781710e-02,1.046874861808e-02,1.044769582929e-02,1.072396318661e-02,1.037196986324e-02,1.036785287072e-02,1.110410874542e-02,1.086641652683e-02,1.063463300482e-02,1.037861306781e-02,1.063733672276e-02,1.049128017884e-02,1.040069756173e-02,1.034965324533e-02,1.036020896849e-02,1.035715586230e-02,1.076320213980e-02,1.124639117720e-02,1.133473550856e-02,1.042589262760e-02,1.041114347776e-02,1.035413908449e-02,1.039731513179e-02
FGenAq1_000.TDS_volume_20,7.305000000000e+03,1.059964521626e-02,1.093468705171e-02,1.107208309790e-02,1.162516895939e-02,1.054663707091e-02,1.053689928231e-02,1.034977684377e-02,1.038746077512e-02,1.047816317258e-02,1.045566491965e-02,1.075052681714e-02,1.037470502437e-02,1.037030202104e-02,1.115507609034e-02,1.090228586653e-02,1.065526367321e-02,1.038180942115e-02,1.065814805525e-02,1.050223338052e-02,1.040542427847e-02,1.035083625488e-02,1.036212669265e-02,1.035886118114e-02,1.079234805513e-02,1.130613559168e-02,1.139983033387e-02,1.043235997254e-02,1.041659254579e-02,1.035563444434e-02,1.040180774072e-02
FGenAq1_000.TDS_volume_21,7.670250000000e+03,1.061687214892e-02,1.097262577849e-02,1.111822893095e-02,1.170261928464e-02,1.056049711507e-02,1.055013812824e-02,1.035089918128e-02,1.039104933928e-02,1.048763753724e-02,1.046368727053e-02,1.077720292456e-02,1.037746009956e-02,1.037276908248e-02,1.120609762514e-02,1.093826465314e-02,1.067599697023e-02,1.038502887907e-02,1.067906244884e-02,1.051325410690e-02,1.041018433895e-02,1.035202808559e-02,1.036405855699e-02,1.036057911500e-02,1.082160789659e-02,1.136587171796e-02,1.146486718926e-02,1.043887165462e-02,1.042207960429e-02,1.035714090158e-02,1.040633216176e-02
FGenAq1_000.TDS_volume_22,8.035500000000e+03,1.063419139268e-02,1.101066967411e-02,1.116445338606e-02,1.177986175788e-02,1.057443709807e-02,1.056345432632e-02,1.035202982224e-02,1.039466346093e-02,1.049717156925e-02,1.047176273592e-02,1.080399095416e-02,1.038023505410e-02,1.037525402478e-02,1.125717299130e-02,1.097435220828e-02,1.069683247925e-02,1.038827139926e-02,1.070007948237e-02,1.052434218142e-02,1.041497767247e-02,1.035322872463e-02,1.036600453900e-02,1.036230964433e-02,1.085098106031e-02,1.142559987362e-02,1.152984705060e-02,1.044542756508e-02,1.042760456749e-02,1.035865843944e-02,1.041088832887e-02
FGenAq1_000.TDS_volume_23,8.400750000000e+03,1.065160261253e-02,1.104881803555e-02,1.121075587284e-02,1.185689971079e-02,1.058845677111e-02,1.057684764313e-02,1.035316875469e-02,1.039830309142e-02,1.050676512270e-02,1.047989070479e-02,1.083089033789e-02,1.038302985323e-02,1.037775681765e-02,1.130830179152e-02,1.101054783313e-02,1.071776977418e-02,1.039153693942e-02,1.072119872512e-02,1.053549742364e-02,1.041980420833e-02,1.035443815920e-02,1.036796461621e-02,1.036405274955e-02,1.088046692725e-02,1.148532031808e-02,1.159477081837e-02,1.045202759521e-02,1.043316734960e-02,1.036018704114e-02,1.041547617599e-02
FGenAq1_000.TDS_volume_24,8.766000000000e+03,1.066910546714e-02,1.108707014134e-02,1.125713577471e-02,1.193373634870e-02,1.060255588073e-02,1.059031784092e-02,1.035431596664e-02,1.040196818209e-02,1.051641804891e-02,1.048807037935e-02,1.085790049647e-02,1.038584446223e-02,1.038027743082e-02,1.135948359586e-02,1.104685081187e-02,1.073880842089e-02,1.039482545724e-02,1.074241973821e-02,1.054671964971e-02,1.042466387583e-02,1.035565637647e-02,1.036993876611e-02,1.036580841111e-02,1.091006486568e-02,1.154503326091e-02,1.165963932754e-02,1.045867163633e-02,1.043876786487e-02,1.036172668990e-02,1.042009563710e-02
FGenAq1_000.TDS_volume_25,9.131250000000e+03,1.068669960979e-02,1.112542525465e-02,1.130359245329e-02,1.201037476280e-02,1.061673416941e-02,1.060386467808e-02,1.035547144612e-02,1.040565868426e-02,1.052613019685e-02,1.049630163983e-02,1.088502084116e-02,1.038867884634e-02,1.038281583400e-02,1.141071794694e-02,1.108326041451e-02,1.075994797836e-02,1.039813691040e-02,1.076374207581e-02,1.055800867285e-02,1.042955660426e-02,1.035688336361e-02,1.037192696620e-02,1.036757660943e-02,1.093977423322e-02,1.160473886876e-02,1.172445335578e-02,1.046535957975e-02,1.044440602754e-02,1.036327736895e-02,1.042474664614e-02
FGenAq1_000.TDS_volume_26,9.496500000000e+03,1.070436402962e-02,1.116383574663e-02,1.135006751038e-02,1.208671567946e-02,1.063097483281e-02,1.061747212169e-02,1.035663386220e-02,1.040937032085e-02,1.053589017462e-02,1.050457486598e-02,1.091221835249e-02,1.039152972743e-02,1.038536909347e-02,1.146194002696e-02,1.111973157187e-02,1.078116301214e-02,1.040146746459e-02,1.078514007392e-02,1.056935120188e-02,1.043447670697e-02,1.035811770709e-02,1.037392692172e-02,1.036935530476e-02,1.096955868276e-02,1.166436085710e-02,1.178912967562e-02,1.047208361958e-02,1.045007527306e-02,1.036483729041e-02,1.042942380050e-02
FGenAq1_000.TDS_volume_27,9.861750000000e+03,1.072209851587e-02,1.120230131583e-02,1.139656090208e-02,1.216276352381e-02,1.064527771511e-02,1.063114002598e-02,1.035780320918e-02,1.041310306479e-02,1.054569789410e-02,1.051288998952e-02,1.093949269536e-02,1.039439708694e-02,1.038793719331e-02,1.151315007698e-02,1.115626395454e-02,1.080245325711e-02,1.040481709668e-02,1.080661346477e-02,1.058074712586e-02,1.043942414286e-02,1.035935940078e-02,1.037593862127e-02,1.037114448735e-02,1.099941786331e-02,1.172390029110e-02,1.185367009156e-02,1.047884368957e-02,1.045577555045e-02,1.036640644605e-02,1.043412706207e-02
FGenAq1_000.TDS_volume_28,1.022700000000e+04,1.073990285376e-02,1.124082164835e-02,1.144307256538e-02,1.223852260399e-02,1.065964265751e-02,1.064486824235e-02,1.035897948140e-02,1.041685688899e-02,1.055555326538e-02,1.052124694078e-02,1.096684352751e-02,1.039728090633e-02,1.039052011764e-02,1.156434831299e-02,1.119285722185e-02,1.082381844305e-02,1.040818578352e-02,1.082816197545e-02,1.059219633166e-02,1.044439887079e-02,1.036060843856e-02,1.037796205343e-02,1.037294414741e-02,1.102935141572e-02,1.178335819414e-02,1.191807635089e-02,1.048563898166e-02,1.046150680874e-02,1.036798482764e-02,1.043885639274e-02
FGenAq1_000.TDS_volume_29,1.059225000000e+04,1.075777682499e-02,1.127939641956e-02,1.148960242061e-02,1.231399711874e-02,1.067406949853e-02,1.065865661971e-02,1.036016267316e-02,1.042063176638e-02,1.056545619700e-02,1.052964564884e-02,1.099427050048e-02,1.040018116703e-02,1.039311785054e-02,1.161553492877e-02,1.122951102337e-02,1.084525829523e-02,1.041157350195e-02,1.084978532851e-02,1.060369870422e-02,1.044940084962e-02,1.036186481430e-02,1.037999720680e-02,1.037475427519e-02,1.105935897380e-02,1.184273555178e-02,1.198235014846e-02,1.049246943571e-02,1.046726899693e-02,1.036957242694e-02,1.044361175439e-02
FGenAq1_000.TDS_volume_30,1.095750000000e+04,1.077572020811e-02,1.131802529553e-02,1.153615037342e-02,1.238919116401e-02,1.068855807434e-02,1.067250500477e-02,1.036135277878e-02,1.042442766985e-02,1.057540659607e-02,1.053808604167e-02,1.102177326042e-02,1.040309785048e-02,1.039573037608e-02,1.166671009836e-02,1.126622500024e-02,1.086677253502e-02,1.041498022881e-02,1.087148324253e-02,1.061525412671e-02,1.045443003822e-02,1.036312852188e-02,1.038204406995e-02,1.037657486091e-02,1.108944016526e-02,1.190203331510e-02,1.204649313081e-02,1.049933499934e-02,1.047306206402e-02,1.037116923571e-02,1.044839310888e-02
FGenAq1_000.TDS_volume_31,1.132275000000e+04,1.079371058605e-02,1.135665871406e-02,1.158265625955e-02,1.246400636272e-02,1.070309038349e-02,1.068639620966e-02,1.036254835140e-02,1.042823996389e-02,1.058539219518e-02,1.054655774183e-02,1.104931697600e-02,1.040602740017e-02,1.039835451031e-02,1.171780744111e-02,1.130295214215e-02,1.088833413964e-02,1.041840180658e-02,1.089322845675e-02,1.062684831281e-02,1.045948028229e-02,1.036439802476e-02,1.038410015074e-02,1.037840368879e-02,1.111955676794e-02,1.196117419439e-02,1.211042152662e-02,1.050622725608e-02,1.047887891202e-02,1.037277331127e-02,1.045319460761e-02
FGenAq1_000.TDS_volume_32,1.168800000000e+04,1.081174777545e-02,1.139529665247e-02,1.162912046901e-02,1.253844820658e-02,1.071766627929e-02,1.070033009508e-02,1.036374938277e-02,1.043206861577e-02,1.059541290127e-02,1.055506067381e-02,1.107690142569e-02,1.040896979255e-02,1.040099023262e-02,1.176882773380e-02,1.133969236533e-02,1.090994289742e-02,1.042183820671e-02,1.091502075842e-02,1.063848115034e-02,1.046455153486e-02,1.036567331412e-02,1.038616543378e-02,1.038024074541e-02,1.114970857664e-02,1.202015998049e-02,1.217413797999e-02,1.051314614797e-02,1.048471912915e-02,1.037438464210e-02,1.045801620660e-02
FGenAq1_000.TDS_volume_33,1.205325000000e+04,1.082983159076e-02,1.143393907930e-02,1.167554337604e-02,1.261252206602e-02,1.073228561337e-02,1.071430652015e-02,1.036495586464e-02,1.043591359278e-02,1.060546862023e-02,1.056359476131e-02,1.110452638381e-02,1.041192500405e-02,1.040363752244e-02,1.181977173084e-02,1.137644557838e-02,1.093159859385e-02,1.042528940063e-02,1.093685993190e-02,1.065015252588e-02,1.046964374895e-02,1.036695438114e-02,1.038823990371e-02,1.038208601740e-02,1.117989538127e-02,1.207899242339e-02,1.223764507727e-02,1.052009161642e-02,1.049058248310e-02,1.037600321670e-02,1.046285786186e-02
FGenAq1_000.TDS_volume_34,1.241850000000e+04,1.084796184445e-02,1.147258595528e-02,1.172192534047e-02,1.268623319552e-02,1.074694823589e-02,1.072832534257e-02,1.036616778876e-02,1.043977486221e-02,1.061555925708e-02,1.057215992730e-02,1.113219162102e-02,1.041489301114e-02,1.040629635917e-02,1.187064016592e-02,1.141321168306e-02,1.095330101192e-02,1.042875535981e-02,1.095874575903e-02,1.066186232492e-02,1.047475687762e-02,1.036824121699e-02,1.039032354515e-02,1.038393949133e-02,1.121011696742e-02,1.213767323458e-02,1.230094535004e-02,1.052706360233e-02,1.049646892626e-02,1.037762902356e-02,1.046771952943e-02
FGenAq1_000.TDS_volume_35,1.278375000000e+04,1.086613834727e-02,1.151123723405e-02,1.176826670887e-02,1.275958673837e-02,1.076165399569e-02,1.074238641884e-02,1.036738514688e-02,1.044365239136e-02,1.062568471602e-02,1.058075609411e-02,1.115989690479e-02,1.041787379027e-02,1.040896672223e-02,1.192143375347e-02,1.144999057507e-02,1.097504993240e-02,1.043223605570e-02,1.098067801939e-02,1.067361043197e-02,1.047989087395e-02,1.036953381285e-02,1.039241634273e-02,1.038580115382e-02,1.124037311689e-02,1.219620408923e-02,1.236404127784e-02,1.053406204609e-02,1.050237841064e-02,1.037926205116e-02,1.047260116536e-02
FGenAq1_000.TDS_volume_36,1.314900000000e+04,1.088434811660e-02,1.154986446989e-02,1.181453315258e-02,1.283252844427e-02,1.077639246077e-02,1.075647978754e-02,1.036860710019e-02,1.044754349164e-02,1.063583788472e-02,1.058937724481e-02,1.118762212443e-02,1.042086527893e-02,1.041164676524e-02,1.197211477217e-02,1.148675524053e-02,1.099682971973e-02,1.043572907708e-02,1.100264094057e-02,1.068538856511e-02,1.048504196499e-02,1.037083127789e-02,1.039451685138e-02,1.038766972011e-02,1.127064178659e-02,1.225454143436e-02,1.242688592907e-02,1.054108206771e-02,1.050830682659e-02,1.038090117313e-02,1.047749937709e-02
FGenAq1_000.TDS_volume_37,1.351425000000e+04,1.090259101247e-02,1.158846782941e-02,1.186072532050e-02,1.290506412722e-02,1.079116351308e-02,1.077060533562e-02,1.036983364120e-02,1.045144813413e-02,1.064601868420e-02,1.059802331434e-02,1.121536715848e-02,1.042386745613e-02,1.041433646981e-02,1.202268429612e-02,1.152350576843e-02,1.101864022414e-02,1.043923439862e-02,1.102463437278e-02,1.069719663078e-02,1.049020990899e-02,1.037213360412e-02,1.039662505730e-02,1.038954517813e-02,1.130092289025e-02,1.231268741122e-02,1.248948231414e-02,1.054812361648e-02,1.051425413284e-02,1.038254637911e-02,1.048241412604e-02
FGenAq1_000.TDS_volume_38,1.387950000000e+04,1.092086689355e-02,1.162704747198e-02,1.190684384727e-02,1.297719948381e-02,1.080596703352e-02,1.078476294904e-02,1.037106476245e-02,1.045536628991e-02,1.065622703481e-02,1.060669423713e-02,1.124313188264e-02,1.042688030091e-02,1.041703581755e-02,1.207314337842e-02,1.156024224162e-02,1.104048129407e-02,1.044275199501e-02,1.104665816436e-02,1.070903453464e-02,1.049539467093e-02,1.037344078356e-02,1.039874094668e-02,1.039142751582e-02,1.133121633812e-02,1.237064412145e-02,1.255183338714e-02,1.055518664130e-02,1.052022028781e-02,1.038419765869e-02,1.048734505314e-02
FGenAq1_000.TDS_volume_39,1.424475000000e+04,1.093917561725e-02,1.166560355033e-02,1.195288935401e-02,1.304894009729e-02,1.082080290207e-02,1.079895251289e-02,1.037230045646e-02,1.045929793009e-02,1.066646285638e-02,1.061538994716e-02,1.127091617005e-02,1.042990379229e-02,1.041974479008e-02,1.212349305220e-02,1.159696473735e-02,1.106235277635e-02,1.044628184092e-02,1.106871216207e-02,1.072090218166e-02,1.050059621551e-02,1.037475280823e-02,1.040086450573e-02,1.039331672114e-02,1.136152203729e-02,1.242841362872e-02,1.261394204799e-02,1.056227109072e-02,1.052620524965e-02,1.038585500150e-02,1.049229207686e-02
FGenAq1_000.TDS_volume_40,1.461000000000e+04,1.095751703989e-02,1.170413621098e-02,1.199886244915e-02,1.312029144133e-02,1.083567099788e-02,1.081317391147e-02,1.037354071578e-02,1.046324302578e-02,1.067672606817e-02,1.062411037797e-02,1.129871989158e-02,1.043293790930e-02,1.042246336901e-02,1.217373433161e-02,1.163367332768e-02,1.108425451638e-02,1.044982391108e-02,1.109079621116e-02,1.073279947618e-02,1.050581450727e-02,1.037606967015e-02,1.040299572064e-02,1.039521278202e-02,1.139183989200e-02,1.248599796023e-02,1.267581114446e-02,1.056937691296e-02,1.053220897626e-02,1.038751839717e-02,1.049725516382e-02
FGenAq1_000.TDS_volume_41,1.497525000000e+04,1.097588607954e-02,1.174263437892e-02,1.204474990492e-02,1.319123430319e-02,1.085056724614e-02,1.082742325572e-02,1.037478521779e-02,1.046720053785e-02,1.068701390363e-02,1.063285319315e-02,1.132653516445e-02,1.043598185608e-02,1.042519084230e-02,1.222385280210e-02,1.167035747615e-02,1.110618038590e-02,1.045337727419e-02,1.111290412952e-02,1.074472319136e-02,1.051104816875e-02,1.037739102666e-02,1.040513403472e-02,1.039711520375e-02,1.142216126867e-02,1.254338078686e-02,1.273742333106e-02,1.057650221688e-02,1.053822987734e-02,1.038918741216e-02,1.050223300543e-02
FGenAq1_000.TDS_volume_42,1.534050000000e+04,1.099428262983e-02,1.178109829402e-02,1.209055244195e-02,1.326177423261e-02,1.086549155499e-02,1.084170045745e-02,1.037603395717e-02,1.047117044442e-02,1.069732630095e-02,1.064161834203e-02,1.135436192214e-02,1.043903561700e-02,1.042792719630e-02,1.227384959809e-02,1.170701734302e-02,1.112813027671e-02,1.045694191123e-02,1.113503580930e-02,1.075667325391e-02,1.051629717351e-02,1.037871687205e-02,1.040727943787e-02,1.039902397755e-02,1.145248614132e-02,1.260056426132e-02,1.279878157633e-02,1.058364696332e-02,1.054426792130e-02,1.039086203895e-02,1.050722557690e-02
FGenAq1_000.TDS_volume_43,1.570575000000e+04,1.101270658343e-02,1.181952819025e-02,1.213627076851e-02,1.333191667484e-02,1.088044383184e-02,1.085600542780e-02,1.037728692857e-02,1.047515272366e-02,1.070766319787e-02,1.065040577355e-02,1.138220009605e-02,1.044209917642e-02,1.043067241742e-02,1.232372583558e-02,1.174365308367e-02,1.115010407938e-02,1.046051780319e-02,1.115719114141e-02,1.076864958999e-02,1.052156149498e-02,1.038004720060e-02,1.040943192000e-02,1.040093909465e-02,1.148281448142e-02,1.265755050105e-02,1.285988879850e-02,1.059081111283e-02,1.055032307634e-02,1.039254227005e-02,1.051223285327e-02
FGenAq1_000.TDS_volume_44,1.607100000000e+04,1.103115783218e-02,1.185792429608e-02,1.218190558112e-02,1.340166697383e-02,1.089542398350e-02,1.087033807732e-02,1.037854412664e-02,1.047914735372e-02,1.071802453175e-02,1.065921543637e-02,1.141004961575e-02,1.044517251874e-02,1.043342649203e-02,1.237348261283e-02,1.178026484893e-02,1.117210168335e-02,1.046410493103e-02,1.117937001564e-02,1.078065212530e-02,1.052684110639e-02,1.038138200657e-02,1.041159147101e-02,1.040286054629e-02,1.151314625803e-02,1.271434158932e-02,1.292074786703e-02,1.059799462574e-02,1.055639531046e-02,1.039422809794e-02,1.051725480944e-02
FGenAq1_000.TDS_volume_45,1.643625000000e+04,1.104963626717e-02,1.189628683474e-02,1.222745756503e-02,1.347103037514e-02,1.091043191618e-02,1.088469831599e-02,1.037980554604e-02,1.048315431277e-02,1.072841023958e-02,1.066804727882e-02,1.143791040908e-02,1.044825562834e-02,1.043618940652e-02,1.242312101105e-02,1.181685278531e-02,1.119412297706e-02,1.046770327577e-02,1.120157232073e-02,1.079268078509e-02,1.053213598084e-02,1.038272128426e-02,1.041375808081e-02,1.040478832368e-02,1.154348143806e-02,1.277093957635e-02,1.298136160411e-02,1.060519746214e-02,1.056248459148e-02,1.039591951510e-02,1.052229142017e-02
FGenAq1_000.TDS_volume_46,1.680150000000e+04,1.106813650913e-02,1.193460457541e-02,1.227291353496e-02,1.353998908137e-02,1.092546328600e-02,1.089908199249e-02,1.038107083349e-02,1.048717238336e-02,1.073881734444e-02,1.067689877901e-02,1.146577429426e-02,1.045134763689e-02,1.043896038350e-02,1.247262681103e-02,1.185340616462e-02,1.121616152102e-02,1.047131182243e-02,1.122379156302e-02,1.080473210864e-02,1.053744462099e-02,1.038406465847e-02,1.041593114087e-02,1.040672188580e-02,1.157381110802e-02,1.282732866191e-02,1.304171343106e-02,1.061241757409e-02,1.056858919343e-02,1.039761604720e-02,1.052734126225e-02
FGenAq1_000.TDS_volume_47,1.716675000000e+04,1.108665846375e-02,1.197287781550e-02,1.231827427889e-02,1.360854848936e-02,1.094051800790e-02,1.091348902462e-02,1.038233998345e-02,1.049120139643e-02,1.074924578654e-02,1.068576988723e-02,1.149364123684e-02,1.045444852861e-02,1.044173940916e-02,1.252200121276e-02,1.188992520081e-02,1.123821722579e-02,1.047493055192e-02,1.124602765381e-02,1.081680602608e-02,1.054276700008e-02,1.038541212327e-02,1.041811064088e-02,1.040866122363e-02,1.160413528026e-02,1.288351103886e-02,1.310180632227e-02,1.061965492261e-02,1.057470908455e-02,1.039931768647e-02,1.053240431051e-02
FGenAq1_000.TDS_volume_48,1.753200000000e+04,1.110520203610e-02,1.201110684723e-02,1.236354057328e-02,1.367671389842e-02,1.095559599639e-02,1.092791932975e-02,1.038361299037e-02,1.049524133282e-02,1.075969550581e-02,1.069466055355e-02,1.152151120087e-02,1.045755828772e-02,1.044452646968e-02,1.257124539881e-02,1.192641010357e-02,1.126029000109e-02,1.047855944513e-02,1.126828050355e-02,1.082890246722e-02,1.054810309122e-02,1.038676367275e-02,1.042029657050e-02,1.041060632817e-02,1.163445396506e-02,1.293948886655e-02,1.316164320448e-02,1.062690946855e-02,1.058084423295e-02,1.040102442521e-02,1.053748053964e-02
FGenAq1_000.TDS_volume_49,1.789725000000e+04,1.112376713072e-02,1.204929195778e-02,1.240871318346e-02,1.374449051301e-02,1.097069716554e-02,1.094237282487e-02,1.038488984871e-02,1.049929217331e-02,1.077016644191e-02,1.070357072781e-02,1.154938414896e-02,1.046067689845e-02,1.044732155127e-02,1.262036053485e-02,1.196286107853e-02,1.128237975589e-02,1.048219848300e-02,1.129055002192e-02,1.084102136151e-02,1.055345286740e-02,1.038811930096e-02,1.042248891942e-02,1.041255719043e-02,1.166476717080e-02,1.299526427171e-02,1.322122695806e-02,1.063418117260e-02,1.058699460656e-02,1.040273625567e-02,1.054256992425e-02
FGenAq1_000.TDS_volume_50,1.826250000000e+04,1.114235221436e-02,1.208743021765e-02,1.245378893023e-02,1.381187661446e-02,1.098582027514e-02,1.095684832481e-02,1.038617045999e-02,1.050335360119e-02,1.078065774759e-02,1.071249969401e-02,1.157725780283e-02,1.046380411676e-02,1.045012443572e-02,1.266934340127e-02,1.199927528617e-02,1.130448466477e-02,1.048584737968e-02,1.131283436885e-02,1.085316172222e-02,1.055881590692e-02,1.038947890329e-02,1.042468751727e-02,1.041451365911e-02,1.169507244313e-02,1.305083418965e-02,1.328055476819e-02,1.064146945521e-02,1.059315971828e-02,1.040445304533e-02,1.054767206379e-02
