Observation,Time (days),Realization 1,Realization 2,Realization 3,Realization 4,Realization 5,Realization 6,Realization 7,Realization 8,Realization 9,Realization 10,Realization 11,Realization 12,Realization 13,Realization 14,Realization 15,Realization 16,Realization 17,Realization 18,Realization 19,Realization 20,Realization 21,Realization 22,Realization 23,Realization 24,Realization 25,Realization 26,Realization 27,Realization 28,Realization 29,Realization 30
MSW1_001.CO2_aquifer1_0,0.000000000000e+00,0.000000000000e+00,0.000000000000e+00,0.000000000000e+00,0.000000000000e+00,0.000000000000e+00,0.000000000000e+00,0.000000000000e+00,0.000000000000e+00,0.000000000000e+00,0.000000000000e+00,0.000000000000e+00,0.000000000000e+00,0.000000000000e+00,0.000000000000e+00,0.000000000000e+00,0.000000000000e+00,0.000000000000e+00,0.000000000000e+00,0.000000000000e+00,0.000000000000e+00,0.000000000000e+00,0.000000000000e+00,0.000000000000e+00,0.000000000000e+00,0.000000000000e+00,0.000000000000e+00,0.000000000000e+00,0.000000000000e+00,0.000000000000e+00,0.000000000000e+00
MSW1_001.CO2_aquifer1_1,3.652500000000e+02,4.116842081584e-12,2.259545218538e-13,2.572331718572e-12,2.033165027933e-12,1.576613551342e-12,4.017841622310e-13,7.454875802408e-13,2.481992257308e-13,2.894061295761e-12,5.717170041359e-13,5.192222614438e-13,6.298366907270e-12,2.078811329261e-13,2.996756661772e-13,3.913542673545e-13,1.057311607713e-12,1.212763628394e-12,1.770100657700e-13,3.716046636788e-12,8.557393942451e-13,7.589619994438e-14,5.498411030396e-12,2.240825733918e-12,1.340436686203e-13,5.127173848063e-12,1.023529185557e-13,1.537578398914e-12,1.278379224319e-13,7.056013821326e-13,9.385815312566e-14
MSW1_001.CO2_aquifer1_2,7.305000000000e+02,1.569286362557e-11,8.613090866079e-13,9.805392098762e-12,7.750159191074e-12,6.009844669658e-12,1.531548680449e-12,2.841701159834e-12,9.461029885867e-13,1.103178317185e-11,2.179310449760e-12,1.979207356069e-12,2.400855097065e-11,7.924156916793e-13,1.142324447491e-12,1.491791285192e-12,4.030333573706e-12,4.622896344547e-12,6.747392210359e-13,1.416508380015e-11,3.261966657332e-12,2.893063883506e-13,2.095922376731e-11,8.541734645839e-12,5.109569343141e-13,1.954411618222e-11,3.901559396490e-13,5.861047770456e-12,4.873014414671e-13,2.689660189392e-12,3.577750047894e-13
MSW1_001.CO2_aquifer1_3,1.095750000000e+03,3.745741753248e-11,2.055865314582e-12,2.340456617721e-11,1.849891488528e-11,1.434494470061e-11,3.655665380433e-12,6.782878457760e-12,2.258260534451e-12,2.633184851154e-11,5.201812953443e-12,4.724185333274e-12,5.730619597237e-11,1.891423137839e-12,2.726623051425e-12,3.560768146352e-12,9.620034360334e-12,1.103442700951e-11,1.610540260661e-12,3.381074803266e-11,7.786013427574e-12,6.905476539263e-13,5.002773321857e-11,2.038833246282e-11,1.219607054851e-12,4.665000200143e-11,9.312662272542e-13,1.398978021796e-11,1.163143576289e-12,6.419970692116e-12,8.539759236168e-13
MSW1_001.CO2_aquifer1_4,1.461000000000e+03,6.020860005478e-11,3.304573042864e-12,3.762021662561e-11,2.973493209608e-11,2.305789065126e-11,5.876072320669e-12,1.090271680056e-11,3.629900671483e-12,4.232549485519e-11,8.361331230731e-12,7.593598371273e-12,9.211328655747e-11,3.040250676718e-12,4.382740917526e-12,5.723535654116e-12,1.546312689970e-11,1.773660452600e-11,2.588762936874e-12,5.434698755773e-11,1.251514382911e-11,1.109977947319e-12,8.041397341060e-11,3.277195907182e-11,1.960381629817e-12,7.498464912361e-11,1.496906070849e-12,2.248700353442e-11,1.869622917431e-12,1.031938324967e-11,1.372670571541e-12
MSW1_001.CO2_aquifer1_5,1.826250000000e+03,8.394641119855e-11,4.607432271466e-12,5.245234344452e-11,4.145821082529e-11,3.214868252300e-11,8.192769501182e-12,1.520121618827e-11,5.061023399696e-12,5.901272220373e-11,1.165786528168e-11,1.058744647015e-11,1.284298227363e-10,4.238898308326e-12,6.110678045840e-12,7.980093808497e-12,2.155961119252e-11,2.472942889418e-11,3.609407249679e-12,7.577380237925e-11,1.744935786245e-11,1.547597268529e-12,1.121179443471e-10,4.569261447527e-11,2.733280659215e-12,1.045480575534e-10,2.087075470438e-12,3.135271772020e-11,2.606739464903e-12,1.438789786223e-11,1.913858948566e-12
MSW1_001.CO2_aquifer1_6,2.191500000000e+03,8.860160747161e-11,4.862934574475e-12,5.536105566625e-11,4.375725023893e-11,3.393146780833e-11,8.647094459709e-12,1.604419021720e-11,5.341679317787e-12,6.228523616846e-11,1.230434498072e-11,1.117456675715e-11,1.355518190686e-10,4.473963788654e-12,6.449541912403e-12,8.422624968159e-12,2.275518608196e-11,2.610078405792e-11,3.809564693201e-12,7.997579168015e-11,1.841700119812e-11,1.633418316538e-12,1.183353755297e-10,4.822647012391e-11,2.884853045287e-12,1.103457053576e-10,2.202812948016e-12,3.309136326454e-11,2.751294587464e-12,1.518576982777e-11,2.019990811206e-12
MSW1_001.CO2_aquifer1_7,2.556750000000e+03,9.334290493828e-11,5.123162575694e-12,5.832356660532e-11,4.609881203486e-11,3.574722698572e-11,9.109822483955e-12,1.690275565495e-11,5.627526168226e-12,6.561827762464e-11,1.296278178513e-11,1.177254625467e-11,1.428055418344e-10,4.713376973509e-12,6.794673309049e-12,8.873341058775e-12,2.397287398609e-11,2.749750341829e-11,4.013424192090e-12,8.425549978608e-11,1.940254179096e-11,1.720826686335e-12,1.246678025592e-10,5.080719124962e-11,3.039228871267e-12,1.162505848147e-10,2.320691073190e-12,3.486216630439e-11,2.898523360618e-12,1.599839900719e-11,2.128085658709e-12
MSW1_001.CO2_aquifer1_8,2.922000000000e+03,9.817030359872e-11,5.388116275124e-12,6.133987626174e-11,4.848289621314e-11,3.759596005520e-11,9.580953573920e-12,1.777691250151e-11,5.918563951013e-12,6.901184657230e-11,1.363317569491e-11,1.238138496269e-11,1.501909910353e-10,4.957137862892e-12,7.146072235781e-12,9.332242080343e-12,2.521267490493e-11,2.891958697528e-11,4.220985746346e-12,8.861292669716e-11,2.040597964098e-11,1.809822377920e-12,1.311152254386e-10,5.343477785246e-11,3.196408137156e-12,1.222626959273e-10,2.440709845958e-12,3.666512683975e-11,3.048425784367e-12,1.682578540050e-11,2.238143491075e-12
MSW1_001.CO2_aquifer1_9,3.287250000000e+03,1.030838034567e-10,5.657795672764e-12,6.440998463553e-11,5.090950277381e-11,3.947766701679e-11,1.006048772961e-11,1.866666075690e-11,6.214792666149e-12,7.246594301146e-11,1.431552671007e-11,1.300108288124e-11,1.577081666664e-10,5.205246456802e-12,7.503738692598e-12,9.799328032865e-12,2.647458883849e-11,3.036703472891e-11,4.432249355968e-12,9.304807241468e-11,2.142731474820e-11,1.900405391295e-12,1.376776441650e-10,5.610922993249e-11,3.356390842954e-12,1.283820386938e-10,2.562869266322e-12,3.850024487064e-11,3.201001858710e-12,1.766792900769e-11,2.350164308303e-12
MSW1_001.CO2_aquifer1_10,3.652500000000e+03,1.080834045090e-10,5.932200768614e-12,6.753389172670e-11,5.337863171689e-11,4.139234787053e-11,1.054842495101e-11,1.957200042111e-11,6.516212313633e-12,7.598056694229e-11,1.500983483059e-11,1.363164001030e-11,1.653570687278e-10,5.457702755239e-12,7.867672679502e-12,1.027459891634e-11,2.775861578678e-11,3.183984667918e-11,4.647215020957e-12,9.756093693871e-11,2.246654711263e-11,1.992575726458e-12,1.443550587385e-10,5.883054748975e-11,3.519176988660e-12,1.346086131134e-10,2.687169334281e-12,4.036752039706e-11,3.356251583647e-12,1.852482982876e-11,2.464148110394e-12
MSW1_001.CO2_aquifer1_11,4.017750000000e+03,1.114729149243e-10,6.118235398000e-12,6.965176383211e-11,5.505259293393e-11,4.269041758096e-11,1.087922500364e-11,2.018578103761e-11,6.720561625132e-12,7.836332794266e-11,1.548054530878e-11,1.405913011015e-11,1.705426891271e-10,5.628857061867e-12,8.114403973509e-12,1.059681174694e-11,2.862912978673e-11,3.283834863664e-11,4.792952321104e-12,1.006204613167e-10,2.317110111251e-11,2.055063174400e-12,1.488820531898e-10,6.067548153569e-11,3.629538861460e-12,1.388299576990e-10,2.771439332997e-12,4.163345137221e-11,3.461504093452e-12,1.910577103251e-11,2.541424132955e-12
MSW1_001.CO2_aquifer1_12,4.383000000000e+03,1.148953343583e-10,6.306076251934e-12,7.179019852115e-11,5.674280676986e-11,4.400109035050e-11,1.121323681946e-11,2.080552089741e-11,6.926894979840e-12,8.076922335330e-11,1.595582595127e-11,1.449077074432e-11,1.757786571154e-10,5.801673118845e-12,8.363530800664e-12,1.092215296673e-11,2.950809567432e-11,3.384654512655e-11,4.940104595924e-12,1.037096908532e-10,2.388249568156e-11,2.118157317787e-12,1.534530005794e-10,6.253832818985e-11,3.740972246186e-12,1.430922876451e-10,2.856527515623e-12,4.291167336877e-11,3.567778507983e-12,1.969235263919e-11,2.619450434371e-12
MSW1_001.CO2_aquifer1_13,4.748250000000e+03,1.183506628110e-10,6.495723330418e-12,7.394919579370e-11,5.844927322536e-11,4.532436617914e-11,1.155046039848e-11,2.143122000049e-11,7.135212377758e-12,8.319825317422e-11,1.643567675806e-11,1.492656191283e-11,1.810649726930e-10,5.976150926171e-12,8.615053160968e-12,1.125062257571e-11,3.039551344954e-11,3.486443614892e-11,5.088671845418e-12,1.068286255483e-10,2.460073081977e-11,2.181858156619e-12,1.580679009074e-10,6.441908745156e-11,3.853477142835e-12,1.473956029516e-10,2.942433882158e-12,4.420218638676e-11,3.675074827242e-12,2.028457464880e-11,2.698227014644e-12
MSW1_001.CO2_aquifer1_14,5.113500000000e+03,1.218389002826e-10,6.687176633451e-12,7.612875564979e-11,6.017199229966e-11,4.666024506700e-11,1.189089574070e-11,2.206287834688e-11,7.345513818883e-12,8.565041740542e-11,1.692009772916e-11,1.536650361566e-11,1.864016358598e-10,6.152290483846e-12,8.868971054422e-12,1.158222057389e-11,3.129138311240e-11,3.589202170374e-11,5.238654069587e-12,1.099772654020e-10,2.532580652716e-11,2.246165690897e-12,1.627267541738e-10,6.631775932056e-11,3.967053551409e-12,1.517399036185e-10,3.029158432603e-12,4.550499042618e-11,3.783393051228e-12,2.088243706135e-11,2.777753873774e-12
MSW1_001.CO2_aquifer1_15,5.478750000000e+03,1.253600467730e-10,6.880436161033e-12,7.832887808940e-11,6.191096399278e-11,4.800872701452e-11,1.223454284611e-11,2.270049593655e-11,7.557799303218e-12,8.812571604691e-11,1.740908886456e-11,1.581059585281e-11,1.917886466157e-10,6.330091791870e-12,9.125284481025e-12,1.191694696127e-11,3.219570466290e-11,3.692930179101e-11,5.390051268429e-12,1.131556104142e-10,2.605772280372e-11,2.311079920621e-12,1.674295603786e-10,6.823434379687e-11,4.081701471907e-12,1.561251896460e-10,3.116701166957e-12,4.682008548717e-11,3.892733179942e-12,2.148593987683e-11,2.858031011759e-12
MSW1_001.CO2_aquifer1_16,5.844000000000e+03,1.266407875406e-10,6.950730128064e-12,7.912912497093e-11,6.254347727977e-11,4.849920811463e-11,1.235953703709e-11,2.293241552359e-11,7.635013549902e-12,8.902605231154e-11,1.758694879820e-11,1.597212478476e-11,1.937480550932e-10,6.394763166371e-12,9.218512938042e-12,1.203869643428e-11,3.252463203887e-11,3.730658995461e-11,5.445118720144e-12,1.143116645689e-10,2.632394149565e-11,2.334691065597e-12,1.691401042704e-10,6.893145988680e-11,4.123402169638e-12,1.577202424513e-10,3.148542940345e-12,4.729842282993e-11,3.932503283383e-12,2.170545095373e-11,2.887230081846e-12
MSW1_001.CO2_aquifer1_17,6.209250000000e+03,1.279265744935e-10,7.021301057005e-12,7.993252486706e-11,6.317848270217e-11,4.899162173592e-11,1.248502371172e-11,2.316524888594e-11,7.712532024761e-12,8.992993594816e-11,1.776550950929e-11,1.613429014916e-11,1.957151837417e-10,6.459689349474e-12,9.312108720063e-12,1.216092560660e-11,3.285485540592e-11,3.768536465338e-11,5.500403140503e-12,1.154722736372e-10,2.659120910318e-11,2.358395239722e-12,1.708573877944e-10,6.963132265055e-11,4.165267170301e-12,1.593215798480e-10,3.180510171988e-12,4.777864484687e-11,3.972430083114e-12,2.192582691576e-11,2.916544197798e-12
MSW1_001.CO2_aquifer1_18,6.574500000000e+03,1.292174076318e-10,7.092148947858e-12,8.073907777780e-11,6.381598026001e-11,4.948596787841e-11,1.261100287001e-11,2.339899602361e-11,7.790354727796e-12,9.083736695678e-11,1.794477099783e-11,1.629709194602e-11,1.976900325613e-10,6.524870341179e-12,9.406071827087e-12,1.228363447821e-11,3.318637476411e-11,3.806562588729e-11,5.555904529505e-12,1.166374376192e-10,2.685952562629e-11,2.382192442993e-12,1.725814109506e-10,7.033393208814e-11,4.207296473897e-12,1.609292018358e-10,3.212602861885e-12,4.826075153799e-11,4.012513579136e-12,2.214706776293e-11,2.945973359615e-12
MSW1_001.CO2_aquifer1_19,6.939750000000e+03,1.305132869555e-10,7.163273800621e-12,8.154878370314e-11,6.445596995329e-11,4.998224654211e-11,1.273747451196e-11,2.363365693659e-11,7.868481659006e-12,9.174834533740e-11,1.812473326383e-11,1.646053017532e-11,1.996726015522e-10,6.590306141486e-12,9.500402259113e-12,1.240682304912e-11,3.351919011360e-11,3.844737365632e-11,5.611622887150e-12,1.178071565150e-10,2.712889106500e-11,2.406082675413e-12,1.743121737391e-10,7.103928819959e-11,4.249490080426e-12,1.625431084150e-10,3.244821010037e-12,4.874474290328e-11,4.052753771448e-12,2.236917349525e-11,2.975517567297e-12
MSW1_001.CO2_aquifer1_20,7.305000000000e+03,1.318142124646e-10,7.234675615296e-12,8.236164264308e-11,6.509845178202e-11,5.048045772702e-11,1.286443863756e-11,2.386923162490e-11,7.946912818392e-12,9.266287109002e-11,1.830539630728e-11,1.662460483708e-11,2.016628907143e-10,6.655996750396e-12,9.595100016143e-12,1.253049131933e-11,3.385330145418e-11,3.883060796047e-11,5.667558213439e-12,1.189814303246e-10,2.739930541930e-11,2.430065936980e-12,1.760496761599e-10,7.174739098489e-11,4.291847989888e-12,1.641632995855e-10,3.277164616444e-12,4.923061894274e-11,4.093150660051e-12,2.259214411270e-11,3.005176820844e-12
MSW1_001.CO2_aquifer1_21,7.670250000000e+03,1.325775851048e-10,7.276573626534e-12,8.283862173909e-11,6.547545495869e-11,5.077280404870e-11,1.293894016649e-11,2.400746495948e-11,7.992935592634e-12,9.319950745514e-11,1.841140792981e-11,1.672088253051e-11,2.028307764077e-10,6.694543471971e-12,9.650667899220e-12,1.260305886679e-11,3.404935530514e-11,3.905548677146e-11,5.700380613540e-12,1.196704847641e-10,2.755798239031e-11,2.444139122194e-12,1.770692286229e-10,7.216290001202e-11,4.316703270871e-12,1.651140147498e-10,3.296143584846e-12,4.951572709953e-11,4.116855229751e-12,2.272298147983e-11,3.022580632554e-12
MSW1_001.CO2_aquifer1_22,8.035500000000e+03,1.333418215437e-10,7.318519047726e-12,8.331614056374e-11,6.585288473560e-11,5.106548117666e-11,1.301352599808e-11,2.414585471286e-11,8.039010444233e-12,9.373675105445e-11,1.851753951046e-11,1.681726916757e-11,2.039999836286e-10,6.733133811328e-12,9.706298660480e-12,1.267570852850e-11,3.424563100204e-11,3.928062004547e-11,5.733240154033e-12,1.203603189072e-10,2.771683891332e-11,2.458228232008e-12,1.780899347667e-10,7.257887921090e-11,4.341586677001e-12,1.660658057015e-10,3.315144029019e-12,4.980115787222e-11,4.140586622505e-12,2.285396689679e-11,3.040004137656e-12
MSW1_001.CO2_aquifer1_23,8.400750000000e+03,1.341069217814e-10,7.360511878874e-12,8.379419911705e-11,6.623074111277e-11,5.135848911089e-11,1.308819613235e-11,2.428440088503e-11,8.085137373188e-12,9.427460188795e-11,1.862379104921e-11,1.691376474826e-11,2.051705123772e-10,6.771767768469e-12,9.761992299924e-12,1.274844030448e-11,3.444212854489e-11,3.950600778249e-11,5.766136834916e-12,1.210509327541e-10,2.787587498824e-11,2.472333266423e-12,1.791117945912e-10,7.299532858155e-11,4.366498208279e-12,1.670186724406e-10,3.334165948961e-12,5.008691126081e-11,4.164344838312e-12,2.298510036360e-11,3.057447336149e-12
MSW1_001.CO2_aquifer1_24,8.766000000000e+03,1.348728858179e-10,7.402552119978e-12,8.427279739900e-11,6.660902409018e-11,5.165182785140e-11,1.316295056928e-11,2.442310347601e-11,8.131316379501e-12,9.481305995563e-11,1.873016254608e-11,1.701036927256e-11,2.063423626535e-10,6.810445343392e-12,9.817748817552e-12,1.282125419471e-11,3.463884793369e-11,3.973164998253e-11,5.799070656191e-12,1.217423263046e-10,2.803509061507e-11,2.486454225438e-12,1.801348080964e-10,7.341224812397e-11,4.391437864705e-12,1.679726149671e-10,3.353209344674e-12,5.037298726531e-11,4.188129877172e-12,2.311638188025e-11,3.074910228034e-12
MSW1_001.CO2_aquifer1_25,9.131250000000e+03,1.356397136532e-10,7.444639771036e-12,8.475193540960e-11,6.698773366785e-11,5.194549739819e-11,1.323778930889e-11,2.456196248577e-11,8.177547463169e-12,9.535212525751e-11,1.883665400106e-11,1.710708274049e-11,2.075155344575e-10,6.849166536098e-12,9.873568213364e-12,1.289415019920e-11,3.483578916843e-11,3.995754664559e-11,5.832041617857e-12,1.224344995589e-10,2.819448579381e-11,2.500591109053e-12,1.811589752824e-10,7.382963783816e-11,4.416405646279e-12,1.689276332810e-10,3.372274216156e-12,5.065938588571e-11,4.211941739086e-12,2.324781144678e-11,3.092392813310e-12
MSW1_001.CO2_aquifer1_26,9.496500000000e+03,1.362441846399e-10,7.477816401822e-12,8.512962778431e-11,6.728626084920e-11,5.217698967415e-11,1.329678279438e-11,2.467142153094e-11,8.213990257079e-12,9.577705680016e-11,1.892059852147e-11,1.718331952104e-11,2.084403161155e-10,6.879689472913e-12,9.917569231217e-12,1.295161227575e-11,3.499103296254e-11,4.013561527137e-11,5.858031792986e-12,1.229801222277e-10,2.832013298162e-11,2.511734856835e-12,1.819663003699e-10,7.415865559280e-11,4.436087116971e-12,1.696804500618e-10,3.387302572128e-12,5.088514667418e-11,4.230712027548e-12,2.335141404977e-11,3.106173893087e-12
MSW1_001.CO2_aquifer1_27,9.861750000000e+03,1.368491950103e-10,7.511022636911e-12,8.550765718295e-11,6.758505441346e-11,5.240868851618e-11,1.335582892118e-11,2.478097824903e-11,8.250465569768e-12,9.620236751938e-11,1.900461794760e-11,1.725962432950e-11,2.093659229777e-10,6.910239646077e-12,9.961609512233e-12,1.300912562709e-11,3.514641528439e-11,4.031384279205e-11,5.884045159772e-12,1.235262317686e-10,2.844589228742e-11,2.522888548451e-12,1.827743458528e-10,7.448796693781e-11,4.455786149911e-12,1.704339385987e-10,3.402344338262e-12,5.111110891441e-11,4.249499065188e-12,2.345510909985e-11,3.119967270052e-12
MSW1_001.CO2_aquifer1_28,1.022700000000e+04,1.374547447644e-10,7.544258476302e-12,8.588602360555e-11,6.788411436064e-11,5.264059392430e-11,1.341492768927e-11,2.489063264006e-11,8.286973401235e-12,9.662805741518e-11,1.908871227944e-11,1.733599716586e-11,2.102923550443e-10,6.940817055589e-12,1.000568905641e-11,1.306669025321e-11,3.530193613400e-11,4.049222920764e-11,5.910081718214e-12,1.240728281815e-10,2.857176371121e-11,2.534052183900e-12,1.835831117310e-10,7.481757187319e-11,4.475502745098e-12,1.711880988920e-10,3.417399514558e-12,5.133727260639e-11,4.268302852006e-12,2.355889659701e-11,3.133772944205e-12
MSW1_001.CO2_aquifer1_29,1.059225000000e+04,1.380608339023e-10,7.577523919996e-12,8.626472705208e-11,6.818344069075e-11,5.287270589850e-11,1.347407909867e-11,2.500038470401e-11,8.323513751480e-12,9.705412648755e-11,1.917288151699e-11,1.741243803013e-11,2.112196123152e-10,6.971421701448e-12,1.004980786375e-11,1.312430615412e-11,3.545759551135e-11,4.067077451812e-11,5.936141468312e-12,1.246199114664e-10,2.869774725299e-11,2.545225763182e-12,1.843925980046e-10,7.514747039895e-11,4.495236902534e-12,1.719429309414e-10,3.432468101017e-12,5.156363775013e-11,4.287123388003e-12,2.366277654126e-11,3.147590915545e-12
MSW1_001.CO2_aquifer1_30,1.095750000000e+04,1.386674624239e-10,7.610818967993e-12,8.664376752256e-11,6.848303340378e-11,5.310502443879e-11,1.353328314937e-11,2.511023444090e-11,8.360086620504e-12,9.748057473650e-11,1.925712566026e-11,1.748894692232e-11,2.121476947905e-10,7.002053583656e-12,1.009396593426e-11,1.318197332982e-11,3.561339341646e-11,4.084947872351e-11,5.962224410067e-12,1.251674816235e-10,2.882384291277e-11,2.556409286297e-12,1.852028046735e-10,7.547766251509e-11,4.514988622218e-12,1.726984347472e-10,3.447550097637e-12,5.179020434563e-11,4.305960673177e-12,2.376674893259e-11,3.161421184074e-12
MSW1_001.CO2_aquifer1_31,1.132275000000e+04,1.391174097898e-10,7.635514508348e-12,8.692490870722e-11,6.870524674754e-11,5.327733930967e-11,1.357719586646e-11,2.519171198106e-11,8.387213380104e-12,9.779687912944e-11,1.931961106770e-11,1.754569495390e-11,2.128360703768e-10,7.024773805693e-12,1.012671877524e-11,1.322474611888e-11,3.572895154566e-11,4.098202687052e-11,5.981570600548e-12,1.255736243304e-10,2.891737034841e-11,2.564704308020e-12,1.858037496394e-10,7.572257199063e-11,4.529638830577e-12,1.732588056084e-10,3.458736687794e-12,5.195825289462e-11,4.319932628895e-12,2.384386713910e-11,3.171679344824e-12
MSW1_001.CO2_aquifer1_32,1.168800000000e+04,1.395674048972e-10,7.660212669021e-12,8.720607972232e-11,6.892748366920e-11,5.344967246400e-11,1.362111324291e-11,2.527319816639e-11,8.414343017986e-12,9.811321708380e-11,1.938210310514e-11,1.760244900673e-11,2.135245190026e-10,7.047496438456e-12,1.015947509145e-11,1.326752344634e-11,3.584452193615e-11,4.111458908154e-11,6.000918843756e-12,1.259798101309e-10,2.901090770777e-11,2.573000209885e-12,1.864047583683e-10,7.596750745222e-11,4.544290593396e-12,1.738192359274e-10,3.469924464902e-12,5.212631927437e-11,4.333906067106e-12,2.392099352823e-11,3.181938594016e-12
MSW1_001.CO2_aquifer1_33,1.205325000000e+04,1.400174477460e-10,7.684913450013e-12,8.748728056788e-11,6.914974416875e-11,5.362202390175e-11,1.366503527871e-11,2.535469299689e-11,8.441475534151e-12,9.842958859960e-11,1.944460177260e-11,1.765920908080e-11,2.142130406681e-10,7.070221481947e-12,1.019223488290e-11,1.331030531220e-11,3.596010458791e-11,4.124716535656e-11,6.020269139689e-12,1.263860390250e-10,2.910445499084e-11,2.581296991892e-12,1.870058308603e-10,7.621246889986e-11,4.558943910674e-12,1.743797257045e-10,3.481113428963e-12,5.229440348490e-11,4.347880987810e-12,2.399812809998e-11,3.192198931650e-12
MSW1_001.CO2_aquifer1_34,1.241850000000e+04,1.404675383362e-10,7.709616851323e-12,8.776851124388e-11,6.937202824619e-11,5.379439362295e-11,1.370896197387e-11,2.543619647255e-11,8.468610928599e-12,9.874599367682e-11,1.950710707007e-11,1.771597517612e-11,2.149016353733e-10,7.092948936166e-12,1.022499814959e-11,1.335309171647e-11,3.607569950096e-11,4.137975569560e-11,6.039621488348e-12,1.267923110128e-10,2.919801219763e-11,2.589594654043e-12,1.876069671153e-10,7.645745633356e-11,4.573598782411e-12,1.749402749394e-10,3.492303579976e-12,5.246250552620e-11,4.361857391008e-12,2.407527085434e-11,3.202460357724e-12
MSW1_001.CO2_aquifer1_35,1.278375000000e+04,1.409176766679e-10,7.734322872951e-12,8.804977175034e-11,6.959433590154e-11,5.396678162758e-11,1.375289332838e-11,2.551770859338e-11,8.495749201329e-12,9.906243231547e-11,1.956961899754e-11,1.777274729268e-11,2.155903031181e-10,7.115678801111e-12,1.025776489152e-11,1.339588265914e-11,3.619130667528e-11,4.151236009864e-11,6.058975889734e-12,1.271986260942e-10,2.929157932814e-11,2.597893196336e-12,1.882081671335e-10,7.670246975332e-11,4.588255208607e-12,1.755008836324e-10,3.503494917941e-12,5.263062539828e-11,4.375835276698e-12,2.415242179133e-11,3.212722872240e-12
MSW1_001.CO2_aquifer1_36,1.314900000000e+04,1.412716655114e-10,7.753751691626e-12,8.827095504982e-11,6.976915867128e-11,5.410234757739e-11,1.378744095138e-11,2.558180973598e-11,8.517090742592e-12,9.931127970279e-11,1.961877838558e-11,1.781739289266e-11,2.161318715222e-10,7.133553569910e-12,1.028353266171e-11,1.342953346211e-11,3.628222017256e-11,4.161664021874e-11,6.074196193541e-12,1.275181523279e-10,2.936516053203e-11,2.604419171091e-12,1.886809509069e-10,7.689514833923e-11,4.599781024104e-12,1.759417463822e-10,3.512295787596e-12,5.276283488794e-11,4.386827487854e-12,2.421309329840e-11,3.220793315012e-12
MSW1_001.CO2_aquifer1_37,1.351425000000e+04,1.416255367572e-10,7.773174055918e-12,8.849206487074e-11,6.994392336372e-11,5.423786849128e-11,1.382197709743e-11,2.564588958376e-11,8.538425194053e-12,9.956004442132e-11,1.966792144254e-11,1.786202366108e-11,2.166732600133e-10,7.151422400591e-12,1.030929187167e-11,1.346317308607e-11,3.637310346777e-11,4.172088569629e-11,6.089411441063e-12,1.278375724128e-10,2.943871729174e-11,2.610942977875e-12,1.891535776182e-10,7.708776291601e-11,4.611303010649e-12,1.763824626744e-10,3.521093733544e-12,5.289500045673e-11,4.397816047324e-12,2.427374465000e-11,3.228861076730e-12
MSW1_001.CO2_aquifer1_38,1.387950000000e+04,1.419792904055e-10,7.792589965828e-12,8.871310121309e-11,7.011862997884e-11,5.437334436925e-11,1.385650176654e-11,2.570994813671e-11,8.559752555713e-12,9.980872647109e-11,1.971704816843e-11,1.790663959793e-11,2.172144685915e-10,7.169285293156e-12,1.033504252141e-11,1.349680153100e-11,3.646395656090e-11,4.182509653130e-11,6.104621632299e-12,1.281568863489e-10,2.951224960729e-11,2.617464616687e-12,1.896260472676e-10,7.728031348363e-11,4.622821168242e-12,1.768230325089e-10,3.529888755785e-12,5.302712210465e-11,4.408800955108e-12,2.433437584611e-11,3.236926157392e-12
MSW1_001.CO2_aquifer1_39,1.424475000000e+04,1.423329264561e-10,7.811999421356e-12,8.893406407687e-11,7.029327851665e-11,5.450877521129e-11,1.389101495869e-11,2.577398539484e-11,8.581072827571e-12,1.000573258521e-10,1.976615856324e-11,1.795124070322e-11,2.177554972568e-10,7.187142247604e-12,1.036078461092e-11,1.353041879692e-11,3.655477945197e-11,4.192927272375e-11,6.119826767249e-12,1.284760941362e-10,2.958575747868e-11,2.623984087527e-12,1.900983598549e-10,7.747280004211e-11,4.634335496883e-12,1.772634558857e-10,3.538680854318e-12,5.315919983169e-11,4.419782211207e-12,2.439498688675e-11,3.244988557001e-12
MSW1_001.CO2_aquifer1_40,1.461000000000e+04,1.426864449092e-10,7.831402422501e-12,8.915495346208e-11,7.046786897715e-11,5.464416101741e-11,1.392551667389e-11,2.583800135814e-11,8.602386009628e-12,1.003058425643e-10,1.981525262698e-11,1.799582697694e-11,2.182963460092e-10,7.204993263936e-12,1.038651814022e-11,1.356402488381e-11,3.664557214096e-11,4.203341427366e-11,6.135026845913e-12,1.287951957746e-10,2.965924090589e-11,2.630501390394e-12,1.905705153802e-10,7.766522259145e-11,4.645845996571e-12,1.777037328050e-10,3.547470029144e-12,5.329123363786e-11,4.430759815621e-12,2.445557777191e-11,3.253048275554e-12
MSW1_001.CO2_aquifer1_41,1.497525000000e+04,1.429989474455e-10,7.848554248739e-12,8.935021482006e-11,7.062220310405e-11,5.476383909217e-11,1.395601543126e-11,2.589459006165e-11,8.621226393776e-12,1.005255258717e-10,1.985865069948e-11,1.803524026222e-11,2.187744444086e-10,7.220773169734e-12,1.040926601409e-11,1.359373192545e-11,3.672583088103e-11,4.212547311315e-11,6.148463381122e-12,1.290772746040e-10,2.972419863928e-11,2.636262542779e-12,1.909878904789e-10,7.783531989264e-11,4.656021025118e-12,1.780929279169e-10,3.555239466370e-12,5.340794861839e-11,4.440463776467e-12,2.450913878168e-11,3.260172889479e-12
MSW1_001.CO2_aquifer1_42,1.534050000000e+04,1.433113761780e-10,7.865702024238e-12,8.954543006326e-11,7.077650078191e-11,5.488348890261e-11,1.398650698575e-11,2.595116540063e-11,8.640062328401e-12,1.007451572965e-10,1.990203852269e-11,1.807464423929e-11,2.192524298955e-10,7.236549348800e-12,1.043200851562e-11,1.362343195120e-11,3.680607066643e-11,4.221751021115e-11,6.161896743031e-12,1.293592868148e-10,2.978914103162e-11,2.642022334555e-12,1.914051670062e-10,7.800537702200e-11,4.666193650634e-12,1.784820311128e-10,3.563007068692e-12,5.352463603440e-11,4.450165445534e-12,2.456268714197e-11,3.267295820788e-12
MSW1_001.CO2_aquifer1_43,1.570575000000e+04,1.436237311069e-10,7.882845749000e-12,8.974059919167e-11,7.093076201073e-11,5.500311044873e-11,1.401699133736e-11,2.600772737509e-11,8.658893813502e-12,1.009647368389e-10,1.994541609659e-11,1.811403890815e-11,2.197303024700e-10,7.252321801135e-12,1.045474564479e-11,1.365312496104e-11,3.688629149716e-11,4.230952556767e-11,6.175326931641e-12,1.296412324072e-10,2.985406808293e-11,2.647780765723e-12,1.918223449623e-10,7.817539397953e-11,4.676363873119e-12,1.788710423926e-10,3.570772836110e-12,5.364129588589e-11,4.459864822821e-12,2.461622285279e-11,3.274417069481e-12
MSW1_001.CO2_aquifer1_44,1.607100000000e+04,1.439360122321e-10,7.899985423025e-12,8.993572220531e-11,7.108498679053e-11,5.512270373053e-11,1.404746848610e-11,2.606427598503e-11,8.677720849080e-12,1.011842644987e-10,1.998878342120e-11,1.815342426879e-11,2.202080621320e-10,7.268090526737e-12,1.047747740161e-11,1.368281095500e-11,3.696649337322e-11,4.240151918270e-11,6.188753946951e-12,1.299231113811e-10,2.991897979320e-11,2.653537836283e-12,1.922394243469e-10,7.834537076524e-11,4.686531692573e-12,1.792599617563e-10,3.578536768624e-12,5.375792817287e-11,4.469561908329e-12,2.466974591413e-11,3.281536635558e-12
MSW1_001.CO2_aquifer1_45,1.643625000000e+04,1.442482195536e-10,7.917121046311e-12,9.013079910417e-11,7.123917512129e-11,5.524226874800e-11,1.407793843196e-11,2.612081123044e-11,8.696543435134e-12,1.014037402761e-10,2.003214049650e-11,1.819280032121e-11,2.206857088815e-10,7.283855525608e-12,1.050020378607e-11,1.371248993305e-11,3.704667629461e-11,4.249349105623e-11,6.202177788962e-12,1.302049237366e-10,2.998387616244e-11,2.659293546235e-12,1.926564051603e-10,7.851530737913e-11,4.696697108996e-12,1.796487892039e-10,3.586298866234e-12,5.387453289533e-11,4.479256702058e-12,2.472325632600e-11,3.288654519018e-12
MSW1_001.CO2_aquifer1_46,1.680150000000e+04,1.445023036343e-10,7.931066552370e-12,9.028955878448e-11,7.136465840642e-11,5.533957449813e-11,1.410273582670e-11,2.616682138101e-11,8.711861844244e-12,1.015823565266e-10,2.006742584016e-11,1.822484578397e-11,2.210744327406e-10,7.296685574657e-12,1.051869922840e-11,1.373664361345e-11,3.711193166343e-11,4.256834064287e-11,6.213102531351e-12,1.304342714435e-10,3.003669085708e-11,2.663977722973e-12,1.929957571846e-10,7.865360710953e-11,4.704970042751e-12,1.799652291388e-10,3.592615903989e-12,5.396942946470e-11,4.487146628349e-12,2.476680477245e-11,3.294447275152e-12
MSW1_001.CO2_aquifer1_47,1.716675000000e+04,1.447562250891e-10,7.945003132655e-12,9.044821685120e-11,7.149006137639e-11,5.543681796802e-11,1.412751734994e-11,2.621280208293e-11,8.727170448858e-12,1.017608584545e-10,2.010268859955e-11,1.825687073613e-11,2.214629077981e-10,7.309507411877e-12,1.053718283279e-11,1.376078183436e-11,3.717714526577e-11,4.264314232229e-11,6.224020281397e-12,1.306634723572e-10,3.008947174786e-11,2.668658901620e-12,1.933348920078e-10,7.879181832163e-11,4.713237681443e-12,1.802814665373e-10,3.598928898545e-12,5.406426529583e-11,4.495031504720e-12,2.481032534588e-11,3.300236323653e-12
MSW1_001.CO2_aquifer1_48,1.753200000000e+04,1.450099839182e-10,7.958930787167e-12,9.060677330432e-11,7.161538403118e-11,5.553399915769e-11,1.415228300170e-11,2.625875333622e-11,8.742469248977e-12,1.019392460596e-10,2.013792877468e-11,1.828887517771e-11,2.218511340540e-10,7.322321037268e-12,1.055565459924e-11,1.378490459580e-11,3.724231710163e-11,4.271789609448e-11,6.234931039098e-12,1.308925264775e-10,3.014221883477e-11,2.673337082175e-12,1.936738096298e-10,7.892994101542e-11,4.721500025072e-12,1.805975013994e-10,3.605237849902e-12,5.415904038875e-11,4.502911331171e-12,2.485381804626e-11,3.306021664520e-12
MSW1_001.CO2_aquifer1_49,1.789725000000e+04,1.452635801215e-10,7.972849515905e-12,9.076522814384e-11,7.174062637081e-11,5.563111806714e-11,1.417703278197e-11,2.630467514086e-11,8.757758244600e-12,1.021175193419e-10,2.017314636554e-11,1.832085910869e-11,2.222391115084e-10,7.335126450831e-12,1.057411452775e-11,1.380901189775e-11,3.730744717100e-11,4.279260195946e-11,6.245834804455e-12,1.311214338046e-10,3.019493211781e-11,2.678012264640e-12,1.940125100506e-10,7.906797519092e-11,4.729757073638e-12,1.809133337252e-10,3.611542758061e-12,5.425375474343e-11,4.510786107701e-12,2.489728287361e-11,3.311803297754e-12
MSW1_001.CO2_aquifer1_50,1.826250000000e+04,1.455041636500e-10,7.986054038810e-12,9.091555225728e-11,7.185944220329e-11,5.572325355512e-11,1.420051258725e-11,2.634824057940e-11,8.772262722467e-12,1.022866449628e-10,2.020655685109e-11,1.835120186178e-11,2.226071808393e-10,7.347274785630e-12,1.059162722976e-11,1.383188219193e-11,3.736923524872e-11,4.286347447402e-11,6.256179069518e-12,1.313385953068e-10,3.024494054650e-11,2.682447551446e-12,1.943338308800e-10,7.919892647720e-11,4.737590431769e-12,1.812129598803e-10,3.617524145139e-12,5.434360906055e-11,4.518256809159e-12,2.493851740869e-11,3.317288260490e-12
