Observation,Time (days),Realization 1,Realization 2,Realization 3,Realization 4,Realization 5,Realization 6,Realization 7,Realization 8,Realization 9,Realization 10,Realization 11,Realization 12,Realization 13,Realization 14,Realization 15,Realization 16,Realization 17,Realization 18,Realization 19,Realization 20,Realization 21,Realization 22,Realization 23,Realization 24,Realization 25,Realization 26,Realization 27,Realization 28,Realization 29,Realization 30
MSW1_000.CO2_aquifer1_0,0.000000000000e+00,0.000000000000e+00,0.000000000000e+00,0.000000000000e+00,0.000000000000e+00,0.000000000000e+00,0.000000000000e+00,0.000000000000e+00,0.000000000000e+00,0.000000000000e+00,0.000000000000e+00,0.000000000000e+00,0.000000000000e+00,0.000000000000e+00,0.000000000000e+00,0.000000000000e+00,0.000000000000e+00,0.000000000000e+00,0.000000000000e+00,0.000000000000e+00,0.000000000000e+00,0.000000000000e+00,0.000000000000e+00,0.000000000000e+00,0.000000000000e+00,0.000000000000e+00,0.000000000000e+00,0.000000000000e+00,0.000000000000e+00,0.000000000000e+00,0.000000000000e+00
MSW1_000.CO2_aquifer1_1,3.652500000000e+02,7.663051175903e-12,1.779604627311e-11,2.212899353368e-11,4.072605393891e-11,6.113844925890e-12,5.830805825883e-12,4.808533075045e-13,1.545589778634e-12,4.133865248003e-12,3.488449065191e-12,1.215237175444e-11,1.184493651863e-12,1.060015538121e-12,2.479893200335e-11,1.678964922681e-11,9.304124474380e-12,1.385521042712e-12,9.389664559478e-12,4.827152336992e-12,2.055313430926e-12,5.107022878695e-13,8.291124324822e-13,7.369626099125e-13,1.341787086031e-11,2.976417609018e-11,3.291491099504e-11,2.822280079823e-12,2.372931293337e-12,6.459522985705e-13,1.952578831919e-12
MSW1_000.CO2_aquifer1_2,7.305000000000e+02,3.138513637543e-11,7.288628597577e-11,9.063249928459e-11,1.667994579315e-10,2.504013772450e-11,2.388091008730e-11,1.969404388938e-12,6.330186869786e-12,1.693084405899e-11,1.428744858508e-11,4.977179940183e-11,4.851265365560e-12,4.341447215191e-12,1.015676192011e-10,6.876444111119e-11,3.810638986493e-11,5.674602170213e-12,3.845673170834e-11,1.977030177958e-11,8.417833944407e-12,2.091655212354e-12,3.395750092377e-12,3.018337142612e-12,5.495483441672e-11,1.219034964779e-10,1.348077870850e-10,1.155905696994e-11,9.718683912348e-12,2.645591226833e-12,7.997069507270e-12
MSW1_000.CO2_aquifer1_3,1.095750000000e+03,3.348947016068e-11,7.777321946847e-11,9.670929398430e-11,1.779831513251e-10,2.671904735829e-11,2.548209497142e-11,2.101450467651e-12,6.754617910129e-12,1.806603578519e-11,1.524540398195e-11,5.310893574952e-11,5.176536585583e-12,4.632535771622e-12,1.083775998961e-10,7.337501011151e-11,4.066137521601e-11,6.055077083845e-12,4.103520704019e-11,2.109587556239e-11,8.982239086731e-12,2.231898054463e-12,3.623430850318e-12,3.220712838574e-12,5.863948672631e-11,1.300769721324e-10,1.438464790878e-10,1.233407715114e-11,1.037030940283e-11,2.822974779601e-12,8.533262924958e-12
MSW1_000.CO2_aquifer1_4,1.461000000000e+03,3.565825088093e-11,8.280981927716e-11,1.029721954680e-10,1.895093544336e-10,2.844937496617e-11,2.713231744591e-11,2.237540565004e-12,7.192047496546e-12,1.923599368199e-11,1.623269754258e-11,5.654827461422e-11,5.511769501472e-12,4.932539152024e-12,1.153961417929e-10,7.812678154032e-11,4.329460907312e-11,6.447204351391e-12,4.369265027786e-11,2.246204612124e-11,9.563929595935e-12,2.376435947762e-12,3.858084516791e-12,3.429286454946e-12,6.243698451213e-11,1.385007671321e-10,1.531619883903e-10,1.313283295622e-11,1.104189145435e-11,3.005790848052e-12,9.085877702494e-12
MSW1_000.CO2_aquifer1_5,1.826250000000e+03,3.789147853627e-11,8.799608540209e-11,1.094212037359e-10,2.013780673096e-10,3.023112054822e-11,2.883157751087e-11,2.377674680996e-12,7.642475629039e-12,2.044071774941e-11,1.724932926701e-11,6.008981599641e-11,5.856964113229e-12,5.241457356396e-12,1.226232448921e-10,8.301975539798e-11,4.600609143642e-11,6.850983972854e-12,4.642906142159e-11,2.386881345616e-11,1.016290547204e-11,2.525268892249e-12,4.099711091796e-12,3.644057991729e-12,6.634732777487e-11,1.471748814818e-10,1.627543149949e-10,1.395532438518e-11,1.173343006691e-11,3.194039432187e-12,9.654913839892e-12
MSW1_000.CO2_aquifer1_6,2.191500000000e+03,3.864423598840e-11,8.974422803583e-11,1.115949807904e-10,2.053786725278e-10,3.083169624938e-11,2.940434969304e-11,2.424909901196e-12,7.794302126616e-12,2.084679592822e-11,1.759200687310e-11,6.128356875408e-11,5.973319387479e-12,5.345584886674e-12,1.250592955603e-10,8.466903756057e-11,4.692005493278e-11,6.987086585672e-12,4.735142770043e-11,2.434299466731e-11,1.036480318419e-11,2.575436239833e-12,4.181156529943e-12,3.716451361179e-12,6.766539314593e-11,1.500986784566e-10,1.659876151587e-10,1.423256282553e-11,1.196652804173e-11,3.257492669542e-12,9.846719718623e-12
MSW1_000.CO2_aquifer1_7,2.556750000000e+03,3.940336002915e-11,9.150715591709e-11,1.137871429765e-10,2.094131136097e-10,3.143735143317e-11,2.998196620432e-11,2.472544622211e-12,7.947412725534e-12,2.125630859009e-11,1.793758273989e-11,6.248741790148e-11,6.090658758484e-12,5.450593095248e-12,1.275159495884e-10,8.633226883932e-11,4.784174844835e-11,7.124340312098e-12,4.828159506657e-11,2.482118635580e-11,1.056840848445e-11,2.626027887254e-12,4.263290808298e-12,3.789457011254e-12,6.899460630413e-11,1.530472039951e-10,1.692482615698e-10,1.451214606247e-11,1.220159748680e-11,3.321482574661e-12,1.004014783187e-11
MSW1_000.CO2_aquifer1_8,2.922000000000e+03,4.016885065851e-11,9.328486904596e-11,1.159976902932e-10,2.134813905586e-10,3.204808609962e-11,3.056442704474e-11,2.520578844042e-12,8.101807425792e-12,2.166925573502e-11,1.828605686739e-11,6.370136343871e-11,6.208982226244e-12,5.556481982119e-12,1.299932069756e-10,8.800944923501e-11,4.877117198316e-11,7.262745152133e-12,4.921956352007e-11,2.530338852163e-11,1.077372137282e-11,2.677043834513e-12,4.346113926862e-12,3.863074941954e-12,7.033496724963e-11,1.560204580979e-10,1.725362542285e-10,1.479407409598e-11,1.243863840210e-11,3.386009147546e-12,1.023519817965e-11
MSW1_000.CO2_aquifer1_9,3.287250000000e+03,4.094070787650e-11,9.507736742195e-11,1.182266227407e-10,2.175835033767e-10,3.266390024874e-11,3.115173221429e-11,2.569012566688e-12,8.257486227391e-12,2.208563736301e-11,1.863742925560e-11,6.492540536637e-11,6.328289790759e-12,5.663251547286e-12,1.324910677223e-10,8.970057874666e-11,4.970832553723e-11,7.402301105778e-12,5.016533306094e-11,2.578960116481e-11,1.098074184931e-11,2.728484081610e-12,4.429625885634e-12,3.937305153279e-12,7.168647598416e-11,1.590184407658e-10,1.758515931348e-10,1.507834692609e-11,1.267765078765e-11,3.451072388196e-12,1.043187076195e-11
MSW1_000.CO2_aquifer1_10,3.652500000000e+03,4.171893168313e-11,9.688465104510e-11,1.204739403190e-10,2.217194520652e-10,3.328479388053e-11,3.174388171300e-11,2.617845790149e-12,8.414449130331e-12,2.250545347405e-11,1.899169990453e-11,6.615954368457e-11,6.448581452031e-12,5.770901790750e-12,1.350095318283e-10,9.140565737429e-11,5.065320911058e-11,7.543008173032e-12,5.111890368922e-11,2.627982428533e-11,1.118946991391e-11,2.780348628545e-12,4.513826684617e-12,4.012147645228e-12,7.304913250596e-11,1.620411519989e-10,1.791942782890e-10,1.536496455278e-11,1.291863464344e-11,3.516672296611e-12,1.063016557877e-11
MSW1_000.CO2_aquifer1_11,4.017750000000e+03,4.213398154264e-11,9.784852905522e-11,1.216725015009e-10,2.239252763022e-10,3.361593488712e-11,3.205969262011e-11,2.643889997942e-12,8.498162106253e-12,2.272935386925e-11,1.918064295900e-11,6.681774628933e-11,6.512736566106e-12,5.828314861417e-12,1.363527035036e-10,9.231502642653e-11,5.115714357171e-11,7.618051429192e-12,5.162747121496e-11,2.654127482888e-11,1.130079078734e-11,2.808009531135e-12,4.558733470397e-12,4.052063368044e-12,7.377587768463e-11,1.636532536412e-10,1.809770315180e-10,1.551782624195e-11,1.304715848786e-11,3.551658675243e-12,1.073592209141e-11
MSW1_000.CO2_aquifer1_12,4.383000000000e+03,4.255059361983e-11,9.881603503244e-11,1.228755739804e-10,2.261394030965e-10,3.394832228453e-11,3.237669221665e-11,2.670032234251e-12,8.582190171768e-12,2.295409700936e-11,1.937029718147e-11,6.747842632097e-11,6.577133155395e-12,5.885944030734e-12,1.377009307798e-10,9.322781827803e-11,5.166297480584e-11,7.693377142746e-12,5.213795295222e-11,2.680370945338e-11,1.141253066450e-11,2.835774547364e-12,4.603809282074e-12,4.092129330756e-12,7.450535827942e-11,1.652714231164e-10,1.827664949010e-10,1.567126329148e-11,1.317616608675e-11,3.586776740077e-12,1.084207666393e-11
MSW1_000.CO2_aquifer1_13,4.748250000000e+03,4.296876791484e-11,9.978716897676e-11,1.240831577574e-10,2.283618324490e-10,3.428195607275e-11,3.269488050262e-11,2.696272499076e-12,8.666533326876e-12,2.317968289437e-11,1.956066257194e-11,6.814158377955e-11,6.641771219898e-12,5.943789298700e-12,1.390542136568e-10,9.414403292882e-11,5.217070281284e-11,7.768985313694e-12,5.265034890086e-11,2.706712815883e-11,1.152468954538e-11,2.863643677232e-12,4.649054119648e-12,4.132345533365e-12,7.523757429037e-11,1.668956604246e-10,1.845626684380e-10,1.582527570137e-11,1.330565744010e-11,3.622026491112e-12,1.094862929631e-11
MSW1_000.CO2_aquifer1_14,5.113500000000e+03,4.338850442753e-11,1.007619308882e-10,1.252952528320e-10,2.305925643600e-10,3.461683625179e-11,3.301425747802e-11,2.722610792418e-12,8.751191571576e-12,2.340611152430e-11,1.975173913041e-11,6.880721866507e-11,6.706650759615e-12,6.001850665316e-12,1.404125521349e-10,9.506367037892e-11,5.268032759272e-11,7.844875942036e-12,5.316465906088e-11,2.733153094524e-11,1.163726742998e-11,2.891616920739e-12,4.694467983119e-12,4.172711975871e-12,7.597252571753e-11,1.685259655659e-10,1.863655521291e-10,1.597986347160e-11,1.343563254792e-11,3.657407928348e-12,1.105557998857e-11
MSW1_000.CO2_aquifer1_15,5.478750000000e+03,4.380980315789e-11,1.017403207667e-10,1.265118592042e-10,2.328315988301e-10,3.495296282174e-11,3.333482314287e-11,2.749047114275e-12,8.836164905869e-12,2.363338289913e-11,1.994352685689e-11,6.947533097757e-11,6.771771774546e-12,6.060128130582e-12,1.417759462138e-10,9.598673062834e-11,5.319184914547e-11,7.921049027772e-12,5.368088343229e-11,2.759691781260e-11,1.175026431830e-11,2.919694277885e-12,4.740050872487e-12,4.213228658273e-12,7.671021256090e-11,1.701623385405e-10,1.881751459742e-10,1.613502660219e-11,1.356609141020e-11,3.692921051786e-12,1.116292874070e-11
MSW1_000.CO2_aquifer1_16,5.844000000000e+03,4.407252017606e-11,1.023504333852e-10,1.272705208743e-10,2.342278348468e-10,3.516256746531e-11,3.353472418598e-11,2.765532498980e-12,8.889153294834e-12,2.377510670122e-11,2.006312346611e-11,6.989195809321e-11,6.812380486652e-12,6.096469284226e-12,1.426261430013e-10,9.656234032991e-11,5.351082807286e-11,7.968549683468e-12,5.400279498320e-11,2.776240999521e-11,1.182072787163e-11,2.937202993222e-12,4.768475835354e-12,4.238494393040e-12,7.717022555009e-11,1.711827618136e-10,1.893035877775e-10,1.623178453672e-11,1.364744404860e-11,3.715066625026e-12,1.122987018159e-11
MSW1_000.CO2_aquifer1_17,6.209250000000e+03,4.433565098282e-11,1.029615069525e-10,1.280303774633e-10,2.356262699811e-10,3.537250224360e-11,3.373494008031e-11,2.782043848748e-12,8.942225142387e-12,2.391705372331e-11,2.018290844423e-11,7.030924141122e-11,6.853053158916e-12,6.132867676474e-12,1.434776788786e-10,9.713885663705e-11,5.383030940332e-11,8.016125154378e-12,5.432521355615e-11,2.792816283387e-11,1.189130240755e-11,2.954739285407e-12,4.796945568544e-12,4.263799922234e-12,7.763096307587e-11,1.722047922886e-10,1.904338069163e-10,1.632869486843e-11,1.372892482029e-11,3.737247078327e-12,1.129691705760e-11
MSW1_000.CO2_aquifer1_18,6.574500000000e+03,4.459919557817e-11,1.035735414688e-10,1.287914289712e-10,2.370269042332e-10,3.558276715662e-11,3.393547082584e-11,2.798581163581e-12,8.995380448528e-12,2.405922396540e-11,2.030288179123e-11,7.072718093159e-11,6.893789791340e-12,6.169323307324e-12,1.443305538457e-10,9.771627954975e-11,5.415029313686e-11,8.063775440502e-12,5.464813915116e-11,2.809417632859e-11,1.196198792606e-11,2.972303154437e-12,4.825460072056e-12,4.289145245854e-12,7.809242513827e-11,1.732284299657e-10,1.915658033907e-10,1.642575759730e-11,1.381053372526e-11,3.759462411690e-12,1.136406936876e-11
MSW1_000.CO2_aquifer1_19,6.939750000000e+03,4.486315396211e-11,1.041865369339e-10,1.295536753980e-10,2.384297376034e-10,3.579336220436e-11,3.413631642258e-11,2.815144443479e-12,9.048619213257e-12,2.420161742749e-11,2.042304350712e-11,7.114577665435e-11,6.934590383922e-12,6.205836176778e-12,1.451847679028e-10,9.829460906804e-11,5.447077927349e-11,8.111500541839e-12,5.497157176822e-11,2.826045047937e-11,1.203278442716e-11,2.989894600314e-12,4.854019345891e-12,4.314530363901e-12,7.855461173730e-11,1.742536748449e-10,1.926995772006e-10,1.652297272335e-11,1.389227076352e-11,3.781712625115e-12,1.143132711506e-11
MSW1_000.CO2_aquifer1_20,7.305000000000e+03,4.512752613465e-11,1.048004933480e-10,1.303171167437e-10,2.398347700920e-10,3.600428738683e-11,3.433747687053e-11,2.831733688441e-12,9.101941436574e-12,2.434423410960e-11,2.054339359191e-11,7.156502857949e-11,6.975454936663e-12,6.242406284835e-12,1.460403210498e-10,9.887384519191e-11,5.479176781319e-11,8.159300458391e-12,5.529551140735e-11,2.842698528619e-11,1.210369191085e-11,3.007513623037e-12,4.882623390048e-12,4.339955276375e-12,7.901752287298e-11,1.752805269262e-10,1.938351283462e-10,1.662034024657e-11,1.397413593506e-11,3.803997718601e-12,1.149869029649e-11
MSW1_000.CO2_aquifer1_21,7.670250000000e+03,4.527447852020e-11,1.051417636066e-10,1.307414788310e-10,2.406157633207e-10,3.612153103790e-11,3.444929275284e-11,2.840954890108e-12,9.131580818937e-12,2.442350819293e-11,2.061029069342e-11,7.179807152873e-11,6.998169670378e-12,6.262733933386e-12,1.465158838699e-10,9.919581603126e-11,5.497019064503e-11,8.185870243283e-12,5.547557462043e-11,2.851955435985e-11,1.214310613427e-11,3.017307231008e-12,4.898523068439e-12,4.354087821031e-12,7.927483397867e-11,1.758513069825e-10,1.944663292326e-10,1.667446239434e-11,1.401964103538e-11,3.816384981653e-12,1.153613440457e-11
MSW1_000.CO2_aquifer1_22,8.035500000000e+03,4.542123741307e-11,1.054825845135e-10,1.311652821594e-10,2.413957282109e-10,3.623862031388e-11,3.456096140682e-11,2.850163950190e-12,9.161181175032e-12,2.450267789583e-11,2.067709971130e-11,7.203080762953e-11,7.020854495534e-12,6.283034816459e-12,1.469908205149e-10,9.951736293054e-11,5.514837854694e-11,8.212405043656e-12,5.565540074370e-11,2.861200154753e-11,1.218246846086e-11,3.027087943704e-12,4.914401811675e-12,4.368201757321e-12,7.953180628193e-11,1.764213354904e-10,1.950966990147e-10,1.672851327932e-11,1.406508621900e-11,3.828755934358e-12,1.157352920987e-11
MSW1_000.CO2_aquifer1_23,8.400750000000e+03,4.556780281328e-11,1.058229560688e-10,1.315885267288e-10,2.421746647627e-10,3.635555521478e-11,3.467248283247e-11,2.859360868687e-12,9.190742504861e-12,2.458174321829e-11,2.074382064559e-11,7.226323688190e-11,7.043509412129e-12,6.303308934055e-12,1.474651309848e-10,9.983848588977e-11,5.532633151895e-11,8.238904859512e-12,5.583498977715e-11,2.870432684922e-11,1.222177889063e-11,3.036855761126e-12,4.930259619755e-12,4.382297085247e-12,7.978843978277e-11,1.769906124498e-10,1.957262376924e-10,1.678249290150e-11,1.411047148591e-11,3.841110576715e-12,1.161087471240e-11
MSW1_000.CO2_aquifer1_24,8.766000000000e+03,4.571417472082e-11,1.061628782724e-10,1.320112125393e-10,2.429525729762e-10,3.647233574059e-11,3.478385702980e-11,2.868545645600e-12,9.220264808423e-12,2.466070416033e-11,2.081045349628e-11,7.249535928584e-11,7.066134420163e-12,6.323556286172e-12,1.479388152795e-10,1.001591849089e-10,5.550404956105e-11,8.265369690849e-12,5.601434172079e-11,2.879653026492e-11,1.226103742356e-11,3.046610683274e-12,4.946096492679e-12,4.396373804807e-12,8.004473448120e-11,1.775591378609e-10,1.963549452659e-10,1.683640126087e-11,1.415579683612e-11,3.853448908724e-12,1.164817091216e-11
MSW1_000.CO2_aquifer1_25,9.131250000000e+03,4.586035313569e-11,1.065023511243e-10,1.324333395908e-10,2.437294528516e-10,3.658896189132e-11,3.489508399880e-11,2.877718280927e-12,9.249748085719e-12,2.473956072193e-11,2.087699826334e-11,7.272717484135e-11,7.088729519637e-12,6.343776872812e-12,1.484118733991e-10,1.004794599880e-10,5.568153267324e-11,8.291799537669e-12,5.619345657462e-11,2.888861179464e-11,1.230024405966e-11,3.056352710148e-12,4.961912430447e-12,4.410431916001e-12,8.030069037723e-11,1.781269117237e-10,1.969828217350e-10,1.689023835745e-11,1.420106226962e-11,3.865770930386e-12,1.168541780914e-11
MSW1_000.CO2_aquifer1_26,9.496500000000e+03,4.598822772895e-11,1.067993166709e-10,1.328026097395e-10,2.444090552201e-10,3.669098462568e-11,3.499238361334e-11,2.885742358988e-12,9.275539596017e-12,2.480854320987e-11,2.093521058580e-11,7.292996346708e-11,7.108495359606e-12,6.361465526055e-12,1.488256972502e-10,1.007596316228e-10,5.583679212657e-11,8.314919954696e-12,5.635014345003e-11,2.896916327805e-11,1.233454141231e-11,3.064874883038e-12,4.975747965680e-12,4.422729732014e-12,8.052459659558e-11,1.786235914258e-10,1.975320782591e-10,1.693733420833e-11,1.424065976356e-11,3.876550042403e-12,1.171800081263e-11
MSW1_000.CO2_aquifer1_27,9.861750000000e+03,4.611602199734e-11,1.070960956774e-10,1.331716479299e-10,2.450882306924e-10,3.679294327409e-11,3.508962210879e-11,2.893761396697e-12,9.301314905288e-12,2.487748236622e-11,2.099338634199e-11,7.313262471037e-11,7.128248783593e-12,6.379143068109e-12,1.492392611564e-10,1.010396272667e-10,5.599195405312e-11,8.338025848554e-12,5.650673190201e-11,2.904966416276e-11,1.236881722096e-11,3.073391702694e-12,4.989574810074e-12,4.435019823112e-12,8.074836216639e-11,1.791199591364e-10,1.980809897656e-10,1.698440047578e-11,1.428023238421e-11,3.887322383482e-12,1.175056334900e-11
MSW1_000.CO2_aquifer1_28,1.022700000000e+04,4.624373594085e-11,1.073926881439e-10,1.335404541619e-10,2.457669792684e-10,3.689483783657e-11,3.518679948514e-11,2.901775394053e-12,9.327074013532e-12,2.494637819098e-11,2.105152553190e-11,7.333515857124e-11,7.147989791599e-12,6.396809498974e-12,1.496525651175e-10,1.013194469198e-10,5.614701845289e-11,8.361117219240e-12,5.666322193057e-11,2.913011444878e-11,1.240307148560e-11,3.081903169118e-12,5.003392963628e-12,4.447302189293e-12,8.097198708966e-11,1.796160148556e-10,1.986295562546e-10,1.703143715981e-11,1.431978013154e-11,3.898087953625e-12,1.178310541824e-11
MSW1_000.CO2_aquifer1_29,1.059225000000e+04,4.637136955949e-11,1.076890940705e-10,1.339090284355e-10,2.464453009484e-10,3.699666831310e-11,3.528391574239e-11,2.909784351056e-12,9.352816920749e-12,2.501523068416e-11,2.110962815553e-11,7.353756504968e-11,7.167718383624e-12,6.414464818650e-12,1.500656091337e-10,1.015990905820e-10,5.630198532588e-11,8.384194066757e-12,5.681961353570e-11,2.921051413610e-11,1.243730420625e-11,3.090409282310e-12,5.017202426343e-12,4.459576830559e-12,8.119547136539e-11,1.801117585833e-10,1.991777777262e-10,1.707844426042e-11,1.435930300558e-11,3.908846752831e-12,1.181562702035e-11
MSW1_000.CO2_aquifer1_30,1.095750000000e+04,4.649892285325e-11,1.079853134571e-10,1.342773707507e-10,2.471231957324e-10,3.709843470369e-11,3.538097088055e-11,2.917788267707e-12,9.378543626939e-12,2.508403984574e-11,2.116769421289e-11,7.373984414570e-11,7.187434559668e-12,6.432109027137e-12,1.504783932049e-10,1.018785582535e-10,5.645685467209e-11,8.407256391103e-12,5.697590671741e-11,2.929086322473e-11,1.247151538289e-11,3.098910042269e-12,5.031003198218e-12,4.471843746908e-12,8.141881499359e-11,1.806071903195e-10,1.997256541802e-10,1.712542177761e-11,1.439880100631e-11,3.919598781101e-12,1.184812815533e-11
MSW1_000.CO2_aquifer1_31,1.132275000000e+04,4.659191497226e-11,1.082012707847e-10,1.345459089545e-10,2.476174116773e-10,3.717262700426e-11,3.545172846507e-11,2.923623484872e-12,9.397299559079e-12,2.513420483600e-11,2.121002699443e-11,7.388731475386e-11,7.201808543544e-12,6.444972452970e-12,1.507793314584e-10,1.020823028233e-10,5.656976142860e-11,8.424069868398e-12,5.708985151446e-11,2.934944134363e-11,1.249645687766e-11,3.105107480671e-12,5.041064584967e-12,4.480786883620e-12,8.158164259833e-11,1.809683824575e-10,2.001250808891e-10,1.715967051190e-11,1.442759683489e-11,3.927437495901e-12,1.187182295240e-11
MSW1_000.CO2_aquifer1_32,1.168800000000e+04,4.668477248541e-11,1.084169155146e-10,1.348140584499e-10,2.481109122446e-10,3.724671191165e-11,3.552238362815e-11,2.929450255575e-12,9.416028342055e-12,2.518429721257e-11,2.125229849936e-11,7.403457189865e-11,7.216161721114e-12,6.457817259027e-12,1.510798341045e-10,1.022857524733e-10,5.668250475286e-11,8.440859008228e-12,5.720363137668e-11,2.940793467086e-11,1.252136226968e-11,3.111295948298e-12,5.051111407885e-12,4.489717075164e-12,8.174423451046e-11,1.813290517706e-10,2.005239294287e-10,1.719386967123e-11,1.445635098158e-11,3.935264864182e-12,1.189548345131e-11
MSW1_000.CO2_aquifer1_33,1.205325000000e+04,4.677749539270e-11,1.086322476467e-10,1.350818192369e-10,2.486036974345e-10,3.732068942588e-11,3.559293636981e-11,2.935268579815e-12,9.434729975866e-12,2.523431697544e-11,2.129450872771e-11,7.418161558007e-11,7.230494092379e-12,6.470643445307e-12,1.513799011431e-10,1.024889072035e-10,5.679508464486e-11,8.457623810592e-12,5.731724630408e-11,2.946634320640e-11,1.254623155895e-11,3.117475445147e-12,5.061143666970e-12,4.498634321540e-12,8.190659072999e-11,1.816891982586e-10,2.009221997992e-10,1.722801925561e-11,1.448506344639e-11,3.943080885943e-12,1.191910965206e-11
MSW1_000.CO2_aquifer1_34,1.241850000000e+04,4.687008369413e-11,1.088472671812e-10,1.353491913155e-10,2.490957672470e-10,3.739455954693e-11,3.566338669004e-11,2.941078457594e-12,9.453404460514e-12,2.528426412461e-11,2.133665767946e-11,7.432844579812e-11,7.244805657338e-12,6.483451011812e-12,1.516795325743e-10,1.026917670139e-10,5.690750110461e-11,8.474364275490e-12,5.743069629666e-11,2.952466695027e-11,1.257106474547e-11,3.123645971221e-12,5.071161362224e-12,4.507538622748e-12,8.206871125691e-11,1.820488219216e-10,2.013198920004e-10,1.726211926503e-11,1.451373422931e-11,3.950885561184e-12,1.194270155465e-11
MSW1_000.CO2_aquifer1_35,1.278375000000e+04,4.696253738970e-11,1.090619741179e-10,1.356161746856e-10,2.495871216822e-10,3.746832227481e-11,3.573373458884e-11,2.946879888911e-12,9.472051795996e-12,2.533413866009e-11,2.137874535461e-11,7.447506255280e-11,7.259096415992e-12,6.496239958539e-12,1.519787283981e-10,1.028943319046e-10,5.701975413210e-11,8.491080402922e-12,5.754398135442e-11,2.958290590245e-11,1.259586182924e-11,3.129807526518e-12,5.081164493646e-12,4.516429978788e-12,8.223059609124e-11,1.824079227596e-10,2.017170060323e-10,1.729616969950e-11,1.454236333034e-11,3.958678889905e-12,1.196625915909e-11
MSW1_000.CO2_aquifer1_36,1.314900000000e+04,4.703828160311e-11,1.092378763134e-10,1.358349052104e-10,2.499896718924e-10,3.752875360499e-11,3.579136826404e-11,2.951632807102e-12,9.487328932827e-12,2.537499919502e-11,2.141322637594e-11,7.459518074488e-11,7.270804355476e-12,6.506717513858e-12,1.522238495061e-10,1.030602865288e-10,5.711171927442e-11,8.504775365737e-12,5.763679200457e-11,2.963061912359e-11,1.261617724868e-11,3.134855482213e-12,5.089359723876e-12,4.523714368719e-12,8.236322290914e-11,1.827021220368e-10,2.020423482455e-10,1.732406607895e-11,1.456581819306e-11,3.965063702864e-12,1.198555911466e-11
MSW1_000.CO2_aquifer1_37,1.351425000000e+04,4.711390225839e-11,1.094134915675e-10,1.360532789299e-10,2.503915654398e-10,3.758908635626e-11,3.584890792402e-11,2.956377972072e-12,9.502581148753e-12,2.541579307601e-11,2.144765114994e-11,7.471510299353e-11,7.282493196327e-12,6.517177977613e-12,1.524685707591e-10,1.032259704386e-10,5.720353439815e-11,8.518447988578e-12,5.772945125688e-11,2.967825451230e-11,1.263645952851e-11,3.139895203406e-12,5.097541585597e-12,4.530986875953e-12,8.249563337885e-11,1.829958413997e-10,2.023671597426e-10,1.735191695230e-11,1.458923479491e-11,3.971438100565e-12,1.200482758709e-11
MSW1_000.CO2_aquifer1_38,1.387950000000e+04,4.718939935554e-11,1.095888198803e-10,1.362712958442e-10,2.507928023244e-10,3.764932052862e-11,3.590635356877e-11,2.961115383821e-12,9.517808443774e-12,2.545652030305e-11,2.148201967660e-11,7.483482929876e-11,7.294162938543e-12,6.527621349805e-12,1.527128921571e-10,1.033913836341e-10,5.729519950327e-11,8.532098271443e-12,5.782195911135e-11,2.972581206859e-11,1.265670866871e-11,3.144926690097e-12,5.105710078808e-12,4.538247500491e-12,8.262782750035e-11,1.832890808484e-10,2.026914405235e-10,1.737972231955e-11,1.461261313591e-11,3.977802083008e-12,1.202406457637e-11
MSW1_000.CO2_aquifer1_39,1.424475000000e+04,4.726477289458e-11,1.097638612517e-10,1.364889559532e-10,2.511933825463e-10,3.770945612207e-11,3.596370519831e-11,2.965845042349e-12,9.533010817891e-12,2.549718087614e-11,2.151633195593e-11,7.495435966056e-11,7.305813582126e-12,6.538047630433e-12,1.529568137000e-10,1.035565261153e-10,5.738671458980e-11,8.545726214333e-12,5.791431556798e-11,2.977329179244e-11,1.267692466928e-11,3.149949942284e-12,5.113865203509e-12,4.545496242331e-12,8.275980527367e-11,1.835818403829e-10,2.030151905883e-10,1.740748218068e-11,1.463595321604e-11,3.984155650195e-12,1.204327008251e-11
MSW1_000.CO2_aquifer1_40,1.461000000000e+04,4.734002287548e-11,1.099386156818e-10,1.367062592568e-10,2.515933061054e-10,3.776949313662e-11,3.602096281263e-11,2.970566947656e-12,9.548188271103e-12,2.553777479528e-11,2.155058798791e-11,7.507369407895e-11,7.317445127074e-12,6.548456819497e-12,1.532003353878e-10,1.037213978822e-10,5.747807965773e-11,8.559331817247e-12,5.800652062676e-11,2.982069368387e-11,1.269710753022e-11,3.154964959970e-12,5.122006959701e-12,4.552733101475e-12,8.289156669879e-11,1.838741200031e-10,2.033384099369e-10,1.743519653571e-11,1.465925503532e-11,3.990498802123e-12,1.206244410550e-11
MSW1_000.CO2_aquifer1_41,1.497525000000e+04,4.741282888392e-11,1.101076944291e-10,1.369165049734e-10,2.519802409246e-10,3.782758026614e-11,3.607636081142e-11,2.975135494698e-12,9.562872790269e-12,2.557705030318e-11,2.158373145086e-11,7.518915274830e-11,7.328698902154e-12,6.558527938425e-12,1.534359479665e-10,1.038809149359e-10,5.756647736661e-11,8.572495536744e-12,5.809573104522e-11,2.986655605442e-11,1.271663489125e-11,3.159817099673e-12,5.129884287549e-12,4.559734921563e-12,8.301904876991e-11,1.841569069510e-10,2.036511317519e-10,1.746201078261e-11,1.468180005700e-11,3.996635940862e-12,1.208099539366e-11
MSW1_000.CO2_aquifer1_42,1.534050000000e+04,4.748555023274e-11,1.102765765698e-10,1.371265062139e-10,2.523667258112e-10,3.788559985132e-11,3.613169439280e-11,2.979698729384e-12,9.577540234116e-12,2.561628014110e-11,2.161683637423e-11,7.530447716103e-11,7.339939591221e-12,6.568587346546e-12,1.536712865722e-10,1.040402465014e-10,5.765477228566e-11,8.585643949324e-12,5.818483772881e-11,2.991236509570e-11,1.273613954564e-11,3.164663597255e-12,5.137752455554e-12,4.566728599859e-12,8.314638260344e-11,1.844393650710e-10,2.039634899305e-10,1.748879384960e-11,1.470431886309e-11,4.002765943269e-12,1.209952511019e-11
MSW1_000.CO2_aquifer1_43,1.570575000000e+04,4.755818692193e-11,1.104452621039e-10,1.373362629784e-10,2.527527607652e-10,3.794355189214e-11,3.618696355679e-11,2.984256651713e-12,9.592190602645e-12,2.565546430902e-11,2.164990275801e-11,7.541966731713e-11,7.351167194276e-12,6.578635043860e-12,1.539063512051e-10,1.041993925787e-10,5.774296441488e-11,8.598777054988e-12,5.827384067755e-11,2.995812080772e-11,1.275562149341e-11,3.169504452716e-12,5.145611463717e-12,4.573714136363e-12,8.327356819940e-11,1.847214943631e-10,2.042754844727e-10,1.751554573669e-11,1.472681145358e-11,4.008888809345e-12,1.211803325507e-11
MSW1_000.CO2_aquifer1_44,1.607100000000e+04,4.763073895150e-11,1.106137510313e-10,1.375457752669e-10,2.531383457867e-10,3.800143638861e-11,3.624216830337e-11,2.988809261687e-12,9.606823895855e-12,2.569460280696e-11,2.168293060222e-11,7.553472321660e-11,7.362381711319e-12,6.588671030368e-12,1.541411418650e-10,1.043583531678e-10,5.783105375429e-11,8.611894853736e-12,5.836273989144e-11,3.000382319047e-11,1.277508073455e-11,3.174339666056e-12,5.153461312037e-12,4.580691531074e-12,8.340060555777e-11,1.850032948273e-10,2.045871153786e-10,1.754226644389e-11,1.474927782847e-11,4.015004539089e-12,1.213651982831e-11
MSW1_000.CO2_aquifer1_45,1.643625000000e+04,4.770320632145e-11,1.107820433521e-10,1.377550430793e-10,2.535234808756e-10,3.805925334074e-11,3.629730863256e-11,2.993356559304e-12,9.621440113746e-12,2.573369563491e-11,2.171591990684e-11,7.564964485946e-11,7.373583142350e-12,6.598695306069e-12,1.543756585521e-10,1.045171282687e-10,5.791904030386e-11,8.624997345567e-12,5.845153537046e-11,3.004947224396e-11,1.279451726906e-11,3.179169237275e-12,5.161302000514e-12,4.587660783992e-12,8.352749467857e-11,1.852847664636e-10,2.048983826480e-10,1.756895597119e-11,1.477171798776e-11,4.021113132501e-12,1.215498482991e-11
MSW1_000.CO2_aquifer1_46,1.680150000000e+04,4.776751910032e-11,1.109313981144e-10,1.379407624527e-10,2.538652775701e-10,3.811056428055e-11,3.634624414384e-11,2.997392159689e-12,9.634411601323e-12,2.576838943435e-11,2.174519699880e-11,7.575163462688e-11,7.383524101396e-12,6.607591572441e-12,1.545837856006e-10,1.046580367625e-10,5.799712592380e-11,8.636625443292e-12,5.853033889284e-11,3.008998451155e-11,1.281176665381e-11,3.183455347645e-12,5.168260393850e-12,4.593845802464e-12,8.364010525041e-11,1.855345647253e-10,2.051746237074e-10,1.759264218567e-11,1.479163300612e-11,4.026534339556e-12,1.217137200618e-11
MSW1_000.CO2_aquifer1_47,1.716675000000e+04,4.783174185494e-11,1.110805438117e-10,1.381262218584e-10,2.542065958212e-10,3.816180339592e-11,3.639511115577e-11,3.001422111088e-12,9.647364931568e-12,2.580303466983e-11,2.177443310904e-11,7.585348163023e-11,7.393451145206e-12,6.616475385926e-12,1.547916213153e-10,1.047987480143e-10,5.807510224041e-11,8.648237264146e-12,5.860903210699e-11,3.013044007055e-11,1.282899189308e-11,3.187735458369e-12,5.175209046911e-12,4.600022163221e-12,8.375255819128e-11,1.857840133223e-10,2.054504780879e-10,1.761629524446e-11,1.481152014766e-11,4.031947958071e-12,1.218773624387e-11
MSW1_000.CO2_aquifer1_48,1.753200000000e+04,4.789587458530e-11,1.112294804439e-10,1.383114212962e-10,2.545474356290e-10,3.821297068686e-11,3.644390966835e-11,3.005446413503e-12,9.660300104481e-12,2.583763134135e-11,2.180362823755e-11,7.595518586950e-11,7.403364273781e-12,6.625346746524e-12,1.549991656963e-10,1.049392620241e-10,5.815296925370e-11,8.659832808128e-12,5.868761501290e-11,3.017083892096e-11,1.284619298687e-11,3.192009569447e-12,5.182147959696e-12,4.606189866263e-12,8.386485350119e-11,1.860331122545e-10,2.057259457894e-10,1.763991514758e-11,1.483137941241e-11,4.037353988045e-12,1.220407754299e-11
MSW1_000.CO2_aquifer1_49,1.789725000000e+04,4.795991729139e-11,1.113782080111e-10,1.384963607663e-10,2.548877969935e-10,3.826406615335e-11,3.649263968159e-11,3.009465066933e-12,9.673217120061e-12,2.587217944890e-11,2.183278238434e-11,7.605674734469e-11,7.413263487121e-12,6.634205654235e-12,1.552064187435e-10,1.050795787918e-10,5.823072696368e-11,8.671412075238e-12,5.876608761057e-11,3.021118106278e-11,1.286336993518e-11,3.196277680879e-12,5.189077132206e-12,4.612348911591e-12,8.397699118014e-11,1.862818615220e-10,2.060010268119e-10,1.766350189502e-11,1.485121080035e-11,4.042752429479e-12,1.222039590354e-11
MSW1_000.CO2_aquifer1_50,1.826250000000e+04,4.802278678423e-11,1.115242110033e-10,1.386779122871e-10,2.552219231975e-10,3.831422559008e-11,3.654047699836e-11,3.013410101714e-12,9.685897505822e-12,2.590609466161e-11,2.186140244952e-11,7.615644829151e-11,7.422981354465e-12,6.642902273552e-12,1.554098750738e-10,1.052173250639e-10,5.830706021203e-11,8.682779219055e-12,5.884312265042e-11,3.025078416751e-11,1.288023221496e-11,3.200467603783e-12,5.195879367590e-12,4.618395127932e-12,8.408707458276e-11,1.865260538933e-10,2.062710685610e-10,1.768665655133e-11,1.487067889247e-11,4.048051975606e-12,1.223641532423e-11
