Index,ComponentNameList,Metrics,ThresholdValues,Label
0,LUTReservoir1,pressure,2.97E+07,Pressure at top of the Reservoir
1,LUTReservoir1,CO2saturation,5.55E-01,CO$_2$ Saturation at the top of the Reservoir
2,Expert Panel,Extremely Unlikely,None,Fault Activation due to Injection
