Index,ComponentNameList,Metrics,ThresholdValues,Label
0,LUTReservoir1,pressure,1.00E+06,Pressure at top of the reservoir
1,LUTReservoir1,CO2saturation,1.00E-02,CO$_2$ saturation at top of the reservoir
2,Expert Panel,Extremely Unlikely,None,Plume Movement Due to Third Party Activities
