**File name**,**Included components**,**Comments**
ControlFile_ex1a.yaml,"Analytical reservoir, cemented wellbore",Forward simulation. The saturation and pressure output produced by analytical reservoir model is used as input for cemented wellbore model. The example produces three TimeSeries type of plots. The first two plots is of the |CO2| leakage rates into the intermediate aquifer (aquifer 1) and the shallow aquifer (aquifer 2). The third plot is of the pressure in the reservoir at the wellbore locations.
ControlFile_ex1b.yaml,"Analytical reservoir, cemented wellbore","Similar to example 1a, but this example does not use different subplots for the TimeSeries plots. In addition, this example demonstrates the use of the ``UseMarkers``, ``UseLines``, and ``VaryLineStyles`` entries for TimeSeries plots."
ControlFile_ex1c.yaml,"Analytical reservoir, cemented wellbore","Similar to example 1b, but this example shows what happens when different types of metrics are shown in the same TimeSeries plot figure."
ControlFile_ex2a.yaml,"Analytical reservoir, multisegmented wellbore","Latin hypercube sampling, 30 realizations. A fixed seed can be specified for the sampling setup: symbol # before the seed has commented it out. This example shows a way to specify wellbore locations inside the wellbore component specification with the ``Locations`` keyword."
ControlFile_ex2b.yaml,"Analytical reservoir, multisegmented wellbore","Forward simulation. Similar to 2a, but also shows how the user can change the way initial pressures are calculated by the Analytical Reservoir and Multisegmented Wellbore."
ControlFile_ex2c.yaml,"Analytical reservoir, multisegmented wellbore","Forward simulation. Similar to 2b, it shows how the user can enforce specific initial pressure values for the Analytical Reservoir and Multisegmented Wellbore."
ControlFile_ex3.yaml,"Analytical reservoir, multisegmented wellbore, carbonate aquifer","Latin hypercube sampling, 30 realizations. Example illustrates use of known and random wellbore locations."
ControlFile_ex4a.yaml,"Analytical reservoir, open wellbore, carbonate aquifer","Latin hypercube sampling, 30 realizations. Example demonstrates several plotting options: ``TimeSeries``, ``TimeSeriesStats``, and ``TimeSeriesAndStats``. For analysis of the large number of realizations a user might find it more helpful to plot the time series statistics rather than the data for each realization using ``TimeSeriesStats`` plotting option. ``TimeSeriesAndStats`` plots the simulated values and the related statistics. The ``subplot`` keyword can be used to present some of the results in subplots."
ControlFile_ex4b.yaml,"Analytical reservoir, open wellbore","Latin hypercube sampling, 30 realizations. Example demonstrates several plotting options: ``TimeSeries``, ``TimeSeriesStats``, and ``TimeSeriesAndStats``. For analysis of the large number of realizations a user might find it more helpful to plot the time series statistics rather than the data for each realization using ``TimeSeriesStats`` plotting option. ``TimeSeriesAndStats`` plots the simulated values and the related statistics. The ``subplot`` keyword can be used to present some of the results in subplots. Example also illustrates an option to setup open wellbore with an option to calculate the critical pressure."
ControlFile_ex5.yaml,"Analytical reservoir, cemented wellbore",Example is used to demonstrate parameter study analysis.
ControlFile_ex6.yaml,Lookup table based reservoir,"Latin hypercube sampling, 10 realizations. To run this example, the additional *Kimberlina* data set have to be downloaded and unzipped into the *source/components/reservoir/lookuptables/Kimb_54_sims* folder. The data files can be downloaded from the same EDX directory where the NRAP-Open-IAM was downloaded or from https://gitlab.com/NRAP/Kimberlina_data. The data set comes from simulation work done by Wainwright et. al. :cite:`Wainwright2012`."
ControlFile_ex7a.yaml,Multisegmented wellbore,"Latin hypercube sampling, 30 realizations. Example illustrates the use of dynamic input to drive a wellbore model without attaching a reservoir model. This functionality can be used to quickly evaluate behavior of a single component model with a fixed input or interactions between several component models without constructing a full systems model. In the example the dynamic input is provided as a list of pressure and |CO2| saturation data at the simulation time points."
ControlFile_ex7b.yaml,Multisegmented wellbore,Forward simulation. Example illustrates the use of dynamic input to drive a wellbore model without attaching a reservoir model. In the example the dynamic input is provided as a path to the file containing pressure and |CO2| saturation data at the simulation time points.
ControlFile_ex8a.yaml,"Analytical reservoir, multisegmented wellbore","Latin hypercube sampling, 300 realizations. Example demonstrates the use of the ``Analysis`` section to compute correlation and sensitivity coefficients and create visualizations of the analysis results. Each subsection of the ``Analysis`` section shows some of the available options for the user to control."
ControlFile_ex8b.yaml,"Analytical reservoir, multisegmented wellbore","Latin hypercube sampling, 300 realizations. Example demonstrates the use of the ``Analysis`` section to compute correlation and sensitivity coefficients and create visualizations of the analysis results. Each subsection of the ``Analysis`` section shows some of the available options for the user to control."
ControlFile_ex8c.yaml,"Analytical reservoir, open wellbore, FutureGen2 aquifer","Latin hypercube sampling, 100 realizations. Example demonstrates the use of the ``Analysis`` section to compute correlation and sensitivity coefficients and create visualizations of the analysis results. Each subsection of the ``Analysis`` section shows some of the available options for the user to control."
ControlFile_ex9a.yaml,"Analytical reservoir, open wellbore, atmospheric ROM","Latin hypercube sampling, 30 realizations. The AtmosphericROM model simulates |CO2| dispersion in the atmosphere as a dense gas leak. Example illustrates two plotting options available only for the AtmosphericROM model. ``AtmPlumeSingle`` keyword can be used to plot the critical distance from leakage points for a single realization. For multiple Monte-Carlo simulations probability of being within a critical distance can be estimated and plotted using ``AtmPlumeEnsemble`` keyword. Both types of plots produce a map-view of the release area for each time step. "
ControlFile_ex9b.yaml,"Analytical reservoir, open wellbore, atmospheric ROM",Forward simulation. The AtmosphericROM model simulates |CO2| dispersion in the atmosphere as a dense gas leak. Example illustrates ``AtmPlumeSingle`` plotting option.
ControlFile_ex9c.yaml,"Lookup table based reservoir, open wellbore, atmospheric ROM","Latin hypercube sampling, 30 realizations. The AtmosphericROM model simulates |CO2| dispersion in the atmosphere as a dense gas leak. Example illustrates two plotting options available only for the AtmosphericROM model. ``AtmPlumeSingle`` keyword can be used to plot the critical distance from leakage points for a single realization. For multiple Monte-Carlo simulations probability of being within a critical distance can be estimated and plotted using ``AtmPlumeEnsemble`` keyword. Both types of plots produce a map-view of the release area for each time step. "
ControlFile_ex10.yaml,"Lookup table based reservoir, cemented wellbore, deep alluvium aquifer","Latin hypercube sampling, 30 realizations. Example illustrates a setup connecting lookup table based reservoir, wellbore and aquifer impact components."
ControlFile_ex11.yaml,"Analytical reservoir, multisegmented wellbore, carbonate aquifer",Forward simulation. The saturation/pressure output produced by analytical reservoir model is used to drive leakage from five multisegmented wellbore models separated into two groups according to their properties. Two carbonate aquifer components are linked to both groups of wellbores and estimate the impact from the leakage of |CO2| and brine into the aquifers 1 and 2.
ControlFile_ex12.yaml,Generalized flow rate,Forward simulation. Example simulates brine and |CO2| leakage rates to the deepest aquifer (aquifer 1) illustrating the use of the generalized flow rate component. The component does not require linking to other components.
ControlFile_ex13.yaml,"Generalized flow rate, carbonate aquifer","Forward simulation. Example computes the leakage rates of brine and |CO2| to aquifers 1 and 2 utilizing the generalized flow rate component, and calculates the associated impact with the help of carbonate aquifer component."
ControlFile_ex14.yaml,"Lookup table based reservoir, multisegmented wellbore, FutureGen2 aquifer","Latin hypercube sampling, 50 realizations. Example illustrates a setup connecting lookup table based reservoir, multisegmented wellbore and aquifer impact components."
ControlFile_ex15.yaml,"Lookup table based reservoir, multisegmented wellbore, FutureGen2 AZMI","Latin hypercube sampling, 100 realizations. Example illustrates a setup connecting lookup table based reservoir, multisegmented wellbore and aquifer impact components."
ControlFile_ex16.yaml,Plume stability,Example is used to demonstrate parameter study analysis for plume stability component.
ControlFile_ex17.yaml,Fault flow,Example demonstrates forward simulation for fault flow component. Dynamic inputs are provided as arrays.
ControlFile_ex18.yaml,"Lookup table based reservoir, fault flow","Latin hypercube sampling, 10 realizations. To run this example, the additional *Kimberlina* data set have to be downloaded and unzipped into the *source/components/reservoir/lookuptables/Kimb_54_sims* folder. The data files can be downloaded from the same EDX directory where the NRAP-Open-IAM was downloaded or from https://gitlab.com/NRAP/Kimberlina_data. The data set comes from simulation work done by Wainwright et. al. :cite:`Wainwright2012`."
ControlFile_ex19.yaml,"Lookup table based reservoir, seal horizon","Latin hypercube sampling, 5 realizations. To run this example, the additional *Kimberlina* data set have to be downloaded and unzipped into the *source/components/reservoir/lookuptables/Kimb_54_sims* folder. The data files can be downloaded from the same EDX directory where the NRAP-Open-IAM was downloaded or from https://gitlab.com/NRAP/Kimberlina_data. The data set comes from simulation work done by Wainwright et. al. :cite:`Wainwright2012`."
ControlFile_ex20.yaml,Analytical reservoir,"Latin hypercube sampling, 10 realizations. Example illustrates use of analytical reservoir component."
ControlFile_ex21.yaml,"Multisegmented wellbore, deep alluvium aquifer (ML)",Forward simulation. Example illustrates use of deep alluvium aquifer component (ML). Dynamic input provided through input files is used to drive wellbore component.
ControlFile_ex22.yaml,Chemical well sealing component,Forward simulation. Example illustrates setup of the chemical well sealing component.
ControlFile_ex23.yaml,"Lookup table based reservoir, seal horizon","Forward simulation. To run this example, the additional *Kimberlina* data set have to be downloaded and unzipped into the *source/components/reservoir/lookuptables/Kimb_54_sims* folder. The data files can be downloaded from the same EDX directory where the NRAP-Open-IAM was downloaded or from https://gitlab.com/NRAP/Kimberlina_data. The data set comes from simulation work done by Wainwright et. al. :cite:`Wainwright2012`."
ControlFile_ex24.yaml,"Lookup table based reservoir, multisegmented wellbore, generic aquifer","Forward simulation. Example illustrates a setup connecting lookup table based reservoir, multisegmented wellbore and aquifer impact components. This example requires the additional *FutureGen 2.0* data set that can be downloaded from the following source: https://edx.netl.doe.gov/dataset/phase-iii-nrap-open-iam/resource/71aeb591-1609-430b-8392-4d75ee84750c. The data set has to be placed into the *source/components/reservoir/lookuptables/FutureGen2/1008_sims* folder."
ControlFile_ex25.yaml,"Multisegmented wellbore, generic aquifer","Latin hypercube sampling, 10 realizations. Example illustrates the use of dynamic input to drive a wellbore component providing input for aquifer impact component."
ControlFile_ex26.yaml,"Lookup table based reservoir, multisegmented wellbore, FutureGen2 aquifer", Forward simulation. Example illustrates a setup connecting lookup table based reservoir linked to 3d data to multisegmented wellbore and aquifer impact components. This example requires the additional *FutureGen 2.0* data set that can be downloaded from the following source: https://edx.netl.doe.gov/dataset/phase-iii-nrap-open-iam/resource/71aeb591-1609-430b-8392-4d75ee84750c. The data set has to be placed into the *source/components/reservoir/lookuptables/FutureGen2/1008_sims* folder.
ControlFile_ex27.yaml,"Lookup table based reservoir, multisegmented wellbore", Forward simulation. Example illustrates a setup connecting lookup table based reservoir and multisegmented wellbore components. Reservoir component is linked to lookup tables with additional temperature metric.
ControlFile_ex28.yaml,"Lookup table based reservoir, multisegmented wellbore", Forward simulation. Example illustrates a setup connecting lookup table based reservoir and multisegmented wellbore components. Reservoir component is linked to lookup tables with additional data metric.
ControlFile_ex29.yaml,"Lookup table based reservoir, multisegmented wellbore", Forward simulation. Example illustrates use of known and random wellbore locations in 3d domain. The pressure and CO2 saturation are obtained from a reservoir component linked to 3d lookup tables.
ControlFile_ex30.yaml,"Lookup table based reservoir, multisegmented wellbore","Forward simulation. Example illustrates different options of setting locations both for lookup table reservoir and multisegmented wellbore components: through direct entry, through file, as equally spaced array points, and as a grid. This example requires the additional *FutureGen 2.0* data set that can be downloaded from the following source: https://edx.netl.doe.gov/dataset/phase-iii-nrap-open-iam/resource/71aeb591-1609-430b-8392-4d75ee84750c. The data set has to be placed into the *source/components/reservoir/lookuptables/FutureGen2/1008_sims* folder."
ControlFile_ex31a.yaml,"Analytical reservoir, open wellbore, FutureGen2 aquifer",Forward simulation. Example demonstrates the setup of the AoR plot as well as an option for user to control which and in what form the model outputs are saved.
ControlFile_ex31b.yaml,"Analytical reservoir, open wellbore, generic aquifer",Forward simulation. Example demonstrates the setup of the AoR plot as well as an option for user to control which and in what form the model outputs are saved.
ControlFile_ex31c.yaml,"Analytical reservoir, open wellbore, FutureGen2 aquifer","Latin hypercube sampling, 40 realizations. Example demonstrates the setup of the AoR plot with a specified critical pressure"
ControlFile_ex31d.yaml,"Analytical reservoir, open wellbore, FutureGen2 aquifer","Latin hypercube sampling, 30 realizations. Example demonstrates the setup of the AoR plot with the time list option."
ControlFile_ex31e.yaml,"Analytical reservoir, cemented wellbore, FutureGen2 aquifer",Forward simulation. Example demonstrates the setup of the AoR plot with a CementedWellbore component.
ControlFile_ex31f.yaml,"Analytical reservoir, multisegmented wellbore, FutureGen2 aquifer",Forward simulation. Example demonstrates the setup of the AoR plot with a MultisegmentedWellbore component.
ControlFile_ex31f.yaml,"Analytical reservoir, multisegmented wellbore, FutureGen2 aquifer",Forward simulation. Example demonstrates the setup of the AoR plot with a MultisegmentedWellboreAI component.
ControlFile_ex32a.yaml,"Lookup table based reservoir, open wellbore, FutureGen2 aquifer",Forward simulation. Locations for wellbore components are provided through an input file. Example demonstrates the use of the AoR plot and the use of point clipping options. This example requires the additional *FutureGen 2.0* data set that can be downloaded from the following source: https://edx.netl.doe.gov/dataset/phase-iii-nrap-open-iam/resource/71aeb591-1609-430b-8392-4d75ee84750c. The data set has to be placed into the *source/components/reservoir/lookuptables/FutureGen2/1008_sims* folder.
ControlFile_ex32b.yaml,"Lookup table based reservoir, open wellbore, FutureGen2 aquifer, lookup table stratigraphy",Forward simulation. Locations for wellbore components are provided through an input file. Uses Lookup Table Stratigraphy. Example demonstrates the use of the AoR and stratigraphy plot types as well as point clipping options. This example requires the additional *FutureGen 2.0* data set that can be downloaded from the following source: https://edx.netl.doe.gov/dataset/phase-iii-nrap-open-iam/resource/71aeb591-1609-430b-8392-4d75ee84750c. The data set has to be placed into the *source/components/reservoir/lookuptables/FutureGen2/1008_sims* folder.
ControlFile_ex32c.yaml,"Lookup table based reservoir, open wellbore, FutureGen2 aquifer","Forward simulation. Locations for wellbore components are provided through an input file. Lookup Table Stratigraphy is used. Example demonstrates the use of the stratigraphy plot, point clipping options, and the AoR plot type with the time list option. This example requires the additional *FutureGen 2.0* data set that can be downloaded from the following source: https://edx.netl.doe.gov/dataset/phase-iii-nrap-open-iam/resource/71aeb591-1609-430b-8392-4d75ee84750c. The data set has to be placed into the *source/components/reservoir/lookuptables/FutureGen2/1008_sims* folder."
ControlFile_ex33a.yaml,"Analytical reservoir, open wellbore",Forward simulation. Stratigraphy is setup as spatially varying. Parameters of wellbore component are defined as linked to the stratigraphy explicitly. Setup of stratigraphy and stratigraphic column plots is illustrated.
ControlFile_ex33b.yaml,"Analytical reservoir, open wellbore",Forward simulation. Stratigraphy is setup as spatially varying. Parameters of wellbore component are defined as linked to the stratigraphy explicitly. Setup of stratigraphy and stratigraphic column plots is illustrated.
ControlFile_ex34.yaml,"Analytical reservoir, open wellbore, generic aquifer",Forward simulation. Stratigraphy is setup as spatially varying. Parameters of wellbore component are defined as linked to the stratigraphy explicitly. Setup of default stratigraphy plot is illustrated.
ControlFile_ex35.yaml,"Analytical reservoir, open wellbore",Forward simulation. Stratigraphy is setup as spatially varying. Parameters of wellbore component are defined as linked to the stratigraphy explicitly. Setup of stratigraphy plot is illustrated.
ControlFile_ex36.yaml,"Analytical reservoir, open wellbore, generic aquifer",Forward simulation. Stratigraphy is setup as spatially varying. Parameters of wellbore component are defined as linked to the stratigraphy explicitly. Locations are setup with grid option. Setup of stratigraphy plot is illustrated.
ControlFile_ex37.yaml,"Lookup table based reservoir, multisegmented wellbore",Forward simulation. Setup of stratigraphy plot is illustrated. This example requires the additional *FutureGen 2.0* data set that can be downloaded from the following source: https://edx.netl.doe.gov/dataset/phase-iii-nrap-open-iam/resource/71aeb591-1609-430b-8392-4d75ee84750c. The data set has to be placed into the *source/components/reservoir/lookuptables/FutureGen2/1008_sims* folder.
ControlFile_ex38a.yaml,"Analytical reservoir, open wellbore",Forward simulation. Demonstrates the setup of the Lookup Table Stratigraphy component and the stratigraphy plot.
ControlFile_ex38b.yaml,"Analytical reservoir, open wellbore",Forward simulation. Demonstrates the setup of the Lookup Table Stratigraphy component with random wellbore locations. Also demonstrates the stratigraphy plot type.
ControlFile_ex38c.yaml,"Analytical reservoir, open wellbore",Forward simulation. Demonstrates the setup of the Lookup Table Stratigraphy component with gridded wellbore locations. Also demonstrates the stratigraphy and stratigraphic column plot types.
ControlFile_ex39a.yaml,"Analytical reservoir, multisegmented wellbore, FutureGen2 AZMI","Latin hypercube sampling, 30 realizations. Example demonstrates the setup of the TTFD plot."
ControlFile_ex39b.yaml,"Analytical reservoir, multisegmented wellbore, FutureGen2 AZMI, Dipping Stratigraphy",Forward simulation. Example demonstrates the setup of the TTFD plot with a dipping stratigraphy component.
ControlFile_ex39c.yaml,"Analytical reservoir, multisegmented wellbore, FutureGen2 AZMI, Lookup Table Stratigraphy",Forward simulation. Example demonstrates the setup of the TTFD plot with a lookup table stratigraphy component.
ControlFile_ex40.yaml,"Lookup table based reservoir, multisegmented wellbore, FutureGen2 AZMI","Latin hypercube sampling, 30 realizations. Example demonstrates the setup of the TTFD plot."
ControlFile_ex41.yaml,"Analytical reservoir, open wellbore, generic aquifer",Forward simulation. Example demonstrates the setup of the TTFD plot.
ControlFile_ex42.yaml,"Analytical reservoir, multisegmented wellbore, carbonate aquifer","Latin hypercube sampling, 30 realizations. Example demonstrates the setup of the TTFD plot."
ControlFile_ex43.yaml,"Analytical reservoir, multisegmented wellbore, deep alluvium aquifer","Latin hypercube sampling, 30 realizations. Example demonstrates the setup of the TTFD plot."
ControlFile_ex44a.yaml,Theis reservoir,Forward simulation. Example demonstrates the setup of simulation with Theis reservoir component. Injection rates and times are defined with the array of values.
ControlFile_ex44b.yaml,Theis reservoir,"Latin hypercube sampling, 30 realizations. Example demonstrates the setup of simulation with Theis reservoir component. Injection rates and times are defined with the array of values."
ControlFile_ex45a.yaml,Theis reservoir,Forward simulation. Example demonstrates the setup of simulation with Theis reservoir component. Injection rates and times are defined with the array of values.
ControlFile_ex45b.yaml,Theis reservoir,Forward simulation. Example demonstrates the setup of simulation with Theis reservoir component. Injection rates and times are defined through input files.
ControlFile_ex45c.yaml,Theis reservoir,Forward simulation. Example demonstrates the setup of simulation with Theis reservoir component. Injection rates and times are defined through input files.
ControlFile_ex45d.yaml,Theis reservoir,Forward simulation. Example demonstrates the setup of simulation with Theis reservoir component. Injection rates and times are defined through the same input file.
ControlFile_ex46a.yaml,Theis reservoir,Forward simulation. Example demonstrates the setup of simulation with Theis reservoir component. The reservoir component is setup with multiple injection wells. Injection rates and times are defined with multidimensional arrays.
ControlFile_ex46b.yaml,Theis reservoir,Forward simulation. Example demonstrates the setup of simulation with Theis reservoir component. The reservoir component is setup with multiple injection wells. Injection rates and times are defined through input files.
ControlFile_ex47.yaml,Theis reservoir,Forward simulation. Example illustrates setup of the theis reservoir component in an area of review plot.
ControlFile_ex48a.yaml,"Analytical reservoir, open wellbore",Forward simulation. Example illustrates the use of the 'AccumulateLeakage' option with an OpenWellbore component.
ControlFile_ex48b.yaml,"Analytical reservoir, multisegmented wellbore AI",Forward simulation. Example illustrates the use of the 'AccumulateLeakage' option with a MultisegmentedWellboreAI component.
ControlFile_ex48c.yaml,"Analytical reservoir, multisegmented wellbore AI",Forward simulation. Example illustrates the use of the 'AccumulateLeakage' option with multiple MultisegmentedWellboreAI component locations.
ControlFile_ex49.yaml,Fault flow,Forward simulation. Example illustrates setup of fault flow component. Dynamic inputs are provided as arrays.
ControlFile_ex50.yaml,"Analytical reservoir, fault flow","Latin hypercube sampling, 30 realizations. Example demonstrates the application of fault flow component. Input to the component is provided from the linked reservoir component."
ControlFile_ex51a.yaml,"Analytical reservoir, cemented wellbore (wr)",Forward simulation. Example illustrates setup of system model with analytical reservoir component providing required input for cemented wellbore (wr) component. Example also illustrates use of known and random wellbore locations.
ControlFile_ex51b.yaml,"Analytical reservoir, cemented wellbore (wr)","Latin hypercube sampling, 32 realizations. Example illustrates setup of system model with analytical reservoir component providing required input for cemented wellbore (wr) component. Example also illustrates use of only random wellbore locations."
ControlFile_ex51c.yaml,"Analytical reservoir, cemented wellbore (wr)",Forward simulation. Example illustrates setup of system model with analytical reservoir component providing required input for cemented wellbore (wr) component. Example illustrates setup of cemented wellbore components simulating leakage to different aquifer layers.
ControlFile_ex52a.yaml,Hydrocarbon leakage,Forward simulation. Example illustrates setup of system model with hydrocarbon leakage component.
ControlFile_ex52b.yaml,Hydrocarbon leakage,"Latin hypercube sampling, 30 realizations. Example illustrates setup of system model with hydrocarbon leakage component."
ControlFile_ex53a.yaml,Fault leakage,Forward simulation. Example illustrates setup of system model with fault leakage component.
ControlFile_ex53b.yaml,Fault leakage,"Latin hypercube sampling, 25 realizations. Example illustrates setup of system model with fault leakage component."
ControlFile_ex54a.yaml,"Analytical reservoir, open wellbore, generic aquifer",Forward simulation. Example illustrates setup of gridded radial metric plot.
ControlFile_ex54b.yaml,"Analytical reservoir, open wellbore, generic aquifer",Forward simulation. Example illustrates setup of gridded radial metric plot with default settings.
ControlFile_ex54c.yaml,"Lookup table based reservoir, multisegmented wellbore, generic aquifer",Forward simulation. Example illustrates setup of gridded radial metric plot.
ControlFile_ex54d.yaml,"Analytical reservoir, open wellbore, generic aquifer","Latin hypercube sampling, 30 realizations. Example illustrates setup of gridded radial metric plot."
ControlFile_ex55a.yaml,"Lookup table based reservoir, open wellbore, FutureGen2 aquifer",Forward simulation. Example illustrates setup of AoR workflow section.
ControlFile_ex55b.yaml,"Lookup table based reservoir, open wellbore, FutureGen2 aquifer",Forward simulation. Example illustrates setup of spatially variable stratigraphy and AoR workflow sections.
ControlFile_ex55c.yaml,"Lookup table based reservoir, open wellbore, generic aquifer",Forward simulation. Example illustrates setup of AoR workflow section with default settings.
ControlFile_ex55d.yaml,"Lookup table based reservoir, open wellbore, FutureGen2 aquifer",Forward simulation. Example illustrates setup of spatially variable stratigraphy and AoR workflow sections.
ControlFile_ex56a.yaml,"Analytical reservoir, open wellbore, generic aquifer",Forward simulation. Example illustrates simplified setup of AoR workflow sections.
ControlFile_ex56b.yaml,"Analytical reservoir, open wellbore, FutureGen2 aquifer",Forward simulation. Example illustrates setup of AoR analysis and workflow sections.
ControlFile_ex56c.yaml,"Analytical reservoir, open wellbore, FutureGen2 aquifer",Forward simulation. Example illustrates setup of AoR workflow section.
ControlFile_ex56d.yaml,"Analytical reservoir, open wellbore, FutureGen2 aquifer","Latin hypercube sampling, 30 realizations. Example illustrates setup of AoR workflow section."
ControlFile_ex56e.yaml,"Analytical reservoir, multisegmented wellbore, FutureGen2 aquifer",Forward simulation. Example illustrates setup of AoR workflow section.
ControlFile_ex56f.yaml,"Analytical reservoir, multisegmented wellbore, FutureGen2 aquifer",Forward simulation. Example illustrates setup of AoR workflow section.
ControlFile_ex56g.yaml,"Analytical reservoir, cemented wellbore, FutureGen2 aquifer",Forward simulation. Example illustrates setup of AoR workflow section.
ControlFile_ex57a.yaml,"Lookup table based reservoir, multisegmented wellbore, FutureGen2 AZMI","Latin hypercube sampling, 30 realizations. Example illustrates setup of TTFD workflow section."
ControlFile_ex57b.yaml,"Lookup table based reservoir, multisegmented wellbore, FutureGen2 AZMI",Forward simulation. Example illustrates setup of TTFD workflow section.
ControlFile_ex57c.yaml,"Analytical reservoir, open wellbore, Generic aquifer",Forward simulation. Example illustrates setup of TTFD workflow section.
ControlFile_ex58a.yaml,"Lookup table based reservoir, open wellbore",Forward simulation. Example illustrates setup of LeakageAssessment workflow section.
ControlFile_ex58b.yaml,"Analytical reservoir, multisegmented wellbore","Latin hypercube sampling, 30 realizations. Example illustrates setup of LeakageAssessment workflow section with TimeSeriesStats plots."
ControlFile_ex58c.yaml,"Analytical reservoir, open wellbore","Latin hypercube sampling, 30 realizations. Example illustrates setup of LeakageAssessment workflow section with TimeSeriesAndStats plots."
ControlFile_ex58d.yaml,"Analytical reservoir, open wellbore",Forward simulation. Example illustrates setup of LeakageAssessment workflow section with known and random locations for wellbores.
ControlFile_ex58e.yaml,"Analytical reservoir, multisegmented wellbore AI","Latin hypercube sampling, 30 realizations. Example illustrates setup of LeakageAssessment workflow section with the MultisegmentedWellboreAI component."
ControlFile_ex59a.yaml,"Analytical reservoir, open wellbore, FutureGen2 aquifer","Latin hypercube sampling, 50 realizations. Demonstrates the use of the Bowtie plot."
ControlFile_ex59b.yaml,"Analytical reservoir, open wellbore, FutureGen2 aquifer","Latin hypercube sampling, 50 realizations. Demonstrates the use of the Bowtie plot with the time list option."
ControlFile_ex59c.yaml,"Analytical reservoir, open wellbore, FutureGen2 aquifer","Latin hypercube sampling, 50 realizations. Demonstrates the use of the Bowtie plot with pre-made .csv files."
ControlFile_ex59d.yaml,"Analytical reservoir, open wellbore, FutureGen2 aquifer",Forward simulation. Demonstrates the use of the Bowtie plot.
ControlFile_ex60a.yaml,"Lookup table reservoir, multisegmented wellbore, FutureGen2 aquifer","Latin hypercube sampling, 50 realizations. Demonstrates the use of the Bowtie plot."
ControlFile_ex60b.yaml,"Lookup table reservoir, multisegmented wellbore, FutureGen2 aquifer","Latin hypercube sampling, 30 realizations. Demonstrates the use of the Bowtie plot with pre-made .csv files."
ControlFile_ex60c.yaml,"Lookup table reservoir, multisegmented wellbore, FutureGen2 aquifer","Latin hypercube sampling, 30 realizations. Demonstrates the use of the Bowtie plot."
ControlFile_ex61a.yaml,"Lookup table reservoir, plume stability component","Latin hypercube sampling, 30 realizations. Demonstrates the use of the Bowtie plot."
ControlFile_ex61b.yaml,"Lookup table reservoir, fault flow component","Latin hypercube sampling, 10 realizations. Demonstrates the use of the Bowtie plot."
ControlFile_ex62a.yaml,SALSA component,"Forward simulation. Demonstrates the setup of the SALSA component, SalsaProfile plot, SalsaTimeSeries plot, and SalsaContourPlot."
ControlFile_ex62b.yaml,SALSA component,"Forward simulation. Demonstrates the setup of the SALSA component, SalsaProfile plot, SalsaTimeSeries plot, and SalsaContourPlot."
ControlFile_ex62c.yaml,SALSA component,"Forward simulation. Demonstrates the setup of the SALSA component, SalsaProfile plot, SalsaTimeSeries plot, and SalsaContourPlot."
ControlFile_ex62d.yaml,SALSA component,"Forward simulation. Demonstrates the setup of the SALSA component, SalsaProfile plot, SalsaTimeSeries plot, and SalsaContourPlot."
ControlFile_ex62e.yaml,SALSA component,"Forward simulation. Demonstrates the setup of the SALSA component, SalsaProfile plot, SalsaTimeSeries plot, and SalsaContourPlot."
ControlFile_ex62f.yaml,SALSA component,"Forward simulation. Demonstrates the setup of the SALSA component, SalsaProfile plot, SalsaTimeSeries plot, and SalsaContourPlot."
ControlFile_ex63a.yaml,SALSA component,"Latin hypercube sampling, 100 realizations. Demonstrates the setup of the SALSA component, SalsaProfile plot, SalsaTimeSeries plot, and SalsaContourPlot."
ControlFile_ex63b.yaml,SALSA component,"Latin hypercube sampling, 300 realizations. Demonstrates the setup of the SALSA component, SalsaProfile plot, SalsaTimeSeries plot, and SalsaContourPlot."
ControlFile_ex64a.yaml,SALSA component,Forward simulation. Demonstrates the use of the SalsaContourPlot for an area of review analysis using critical pressure.
ControlFile_ex64b.yaml,SALSA component,Forward simulation. Demonstrates the use of the SalsaContourPlot for an area of review analysis using critical pressure.
ControlFile_ex65a.yaml,SALSA component,Forward simulation. Demonstrates the use of the SalsaLeakageAoR plot for a risk-based area of review analysis.
ControlFile_ex65b.yaml,SALSA component,Forward simulation. Demonstrates the use of the SalsaLeakageAoR plot for a risk-based area of review analysis. Also highlights how results are impacted when leaking wells are not screened across an aquifer.
ControlFile_ex65c.yaml,SALSA component,"Latin hypercube sampling, 30 realizations. Demonstrates the use of the SalsaLeakageAoR plot in a stochastic simulation."
