SimulationSet,ParameterSet,Description
1,1,"Lower logResPerm, lower injRate, and lower logWellPerm."
1,2,"Lower logResPerm, lower  injRate and higher logWellPerm."
1,3,"Higher logResPerm, lower injRate, and lower logWellPerm."
1,4,"Higher logResPerm, lower injRate, and higher logWellPerm."
1,5,"Lower logResPerm, higher injRate, and lower logWellPerm."
1,6,"Lower logResPerm, higher injRate, and higher logWellPerm."
1,7,"Higher logResPerm, higher injRate, and lower logWellPerm."
1,8,"Higher logResPerm, higher injRate, and higher logWellPerm."
2,1,"Randomly varying logResPerm, injRate, and logWellPerm."
3,1,"Randomly varying logResPerm, injRate, and logWellPerm."
